#Command:  
C:\USERS\CHRISTOPHER\APPDATA\LOCAL\MICROSOFT\APPLICATIONINSIGHTS\VSTELAIF-312CBD79-9DBB-4C48-A7DA-3CC2A931CB70\20180404070754_D3A8235898014F06BCCCFC94BCD7E130.TRN
C:\USERS\CHRISTOPHER\APPDATA\LOCAL\MICROSOFT\CLR_V4.0_32\USAGELOGS\VCTIP.EXE.LOG
