The system is: Windows - 10.0.16299 - AMD64
Compiling the C compiler identification source file "CMakeCCompilerId.c" succeeded.
Compiler:  
Build flags: /DWIN32;/D_WINDOWS;/W3
Id flags:  

The output was:
0
Microsoft (R) Build Engine version 14.0.25420.1
Copyright (C) Microsoft Corporation. All rights reserved.

Build started 4/26/2018 5:19:22 AM.
Project "C:\Users\Christopher\Work\Education\Graphics\graphics\programs\program3\build\CMakeFiles\3.10.1\CompilerIdC\CompilerIdC.vcxproj" on node 1 (default targets).
PrepareForBuild:
  Creating directory "Debug\".
  Creating directory "Debug\CompilerIdC.tlog\".
InitializeBuildStatus:
  Creating "Debug\CompilerIdC.tlog\unsuccessfulbuild" because "AlwaysCreate" was specified.
ClCompile:
  C:\Program Files (x86)\Microsoft Visual Studio 14.0\VC\bin\CL.exe /c /nologo /W0 /WX- /Od /Oy- /D _MBCS /Gm- /EHsc /RTC1 /MDd /GS /fp:precise /Zc:wchar_t /Zc:forScope /Zc:inline /Fo"Debug\\" /Fd"Debug\vc140.pdb" /Gd /TC /analyze- /errorReport:queue CMakeCCompilerId.c
  CMakeCCompilerId.c
Link:
  C:\Program Files (x86)\Microsoft Visual Studio 14.0\VC\bin\link.exe /ERRORREPORT:QUEUE /OUT:".\CompilerIdC.exe" /INCREMENTAL:NO /NOLOGO kernel32.lib user32.lib gdi32.lib winspool.lib comdlg32.lib advapi32.lib shell32.lib ole32.lib oleaut32.lib uuid.lib odbc32.lib odbccp32.lib /MANIFEST /MANIFESTUAC:"level='asInvoker' uiAccess='false'" /manifest:embed /PDB:".\CompilerIdC.pdb" /SUBSYSTEM:CONSOLE /TLBID:1 /DYNAMICBASE /NXCOMPAT /IMPLIB:".\CompilerIdC.lib" /MACHINE:X86 /SAFESEH Debug\CMakeCCompilerId.obj
  CompilerIdC.vcxproj -> C:\Users\Christopher\Work\Education\Graphics\graphics\programs\program3\build\CMakeFiles\3.10.1\CompilerIdC\.\CompilerIdC.exe
PostBuildEvent:
  for %%i in (cl.exe) do @echo CMAKE_C_COMPILER=%%~$PATH:i
  :VCEnd
  CMAKE_C_COMPILER=C:\Program Files (x86)\Microsoft Visual Studio 14.0\VC\bin\cl.exe
FinalizeBuildStatus:
  Deleting file "Debug\CompilerIdC.tlog\unsuccessfulbuild".
  Touching "Debug\CompilerIdC.tlog\CompilerIdC.lastbuildstate".
Done Building Project "C:\Users\Christopher\Work\Education\Graphics\graphics\programs\program3\build\CMakeFiles\3.10.1\CompilerIdC\CompilerIdC.vcxproj" (default targets).

Build succeeded.
    0 Warning(s)
    0 Error(s)

Time Elapsed 00:00:01.07


Compilation of the C compiler identification source "CMakeCCompilerId.c" produced "CompilerIdC.exe"

Compilation of the C compiler identification source "CMakeCCompilerId.c" produced "CompilerIdC.vcxproj"

The C compiler identification is MSVC, found in "C:/Users/Christopher/Work/Education/Graphics/graphics/programs/program3/build/CMakeFiles/3.10.1/CompilerIdC/CompilerIdC.exe"

Compiling the CXX compiler identification source file "CMakeCXXCompilerId.cpp" succeeded.
Compiler:  
Build flags: /DWIN32;/D_WINDOWS;/W3;/GR;/EHsc
Id flags:  

The output was:
0
Microsoft (R) Build Engine version 14.0.25420.1
Copyright (C) Microsoft Corporation. All rights reserved.

Build started 4/26/2018 5:19:24 AM.
Project "C:\Users\Christopher\Work\Education\Graphics\graphics\programs\program3\build\CMakeFiles\3.10.1\CompilerIdCXX\CompilerIdCXX.vcxproj" on node 1 (default targets).
PrepareForBuild:
  Creating directory "Debug\".
  Creating directory "Debug\CompilerIdCXX.tlog\".
InitializeBuildStatus:
  Creating "Debug\CompilerIdCXX.tlog\unsuccessfulbuild" because "AlwaysCreate" was specified.
ClCompile:
  C:\Program Files (x86)\Microsoft Visual Studio 14.0\VC\bin\CL.exe /c /nologo /W0 /WX- /Od /Oy- /D _MBCS /Gm- /EHsc /RTC1 /MDd /GS /fp:precise /Zc:wchar_t /Zc:forScope /Zc:inline /Fo"Debug\\" /Fd"Debug\vc140.pdb" /Gd /TP /analyze- /errorReport:queue CMakeCXXCompilerId.cpp
  CMakeCXXCompilerId.cpp
Link:
  C:\Program Files (x86)\Microsoft Visual Studio 14.0\VC\bin\link.exe /ERRORREPORT:QUEUE /OUT:".\CompilerIdCXX.exe" /INCREMENTAL:NO /NOLOGO kernel32.lib user32.lib gdi32.lib winspool.lib comdlg32.lib advapi32.lib shell32.lib ole32.lib oleaut32.lib uuid.lib odbc32.lib odbccp32.lib /MANIFEST /MANIFESTUAC:"level='asInvoker' uiAccess='false'" /manifest:embed /PDB:".\CompilerIdCXX.pdb" /SUBSYSTEM:CONSOLE /TLBID:1 /DYNAMICBASE /NXCOMPAT /IMPLIB:".\CompilerIdCXX.lib" /MACHINE:X86 /SAFESEH Debug\CMakeCXXCompilerId.obj
  CompilerIdCXX.vcxproj -> C:\Users\Christopher\Work\Education\Graphics\graphics\programs\program3\build\CMakeFiles\3.10.1\CompilerIdCXX\.\CompilerIdCXX.exe
PostBuildEvent:
  for %%i in (cl.exe) do @echo CMAKE_CXX_COMPILER=%%~$PATH:i
  :VCEnd
  CMAKE_CXX_COMPILER=C:\Program Files (x86)\Microsoft Visual Studio 14.0\VC\bin\cl.exe
FinalizeBuildStatus:
  Deleting file "Debug\CompilerIdCXX.tlog\unsuccessfulbuild".
  Touching "Debug\CompilerIdCXX.tlog\CompilerIdCXX.lastbuildstate".
Done Building Project "C:\Users\Christopher\Work\Education\Graphics\graphics\programs\program3\build\CMakeFiles\3.10.1\CompilerIdCXX\CompilerIdCXX.vcxproj" (default targets).

Build succeeded.
    0 Warning(s)
    0 Error(s)

Time Elapsed 00:00:01.10


Compilation of the CXX compiler identification source "CMakeCXXCompilerId.cpp" produced "CompilerIdCXX.exe"

Compilation of the CXX compiler identification source "CMakeCXXCompilerId.cpp" produced "CompilerIdCXX.vcxproj"

The CXX compiler identification is MSVC, found in "C:/Users/Christopher/Work/Education/Graphics/graphics/programs/program3/build/CMakeFiles/3.10.1/CompilerIdCXX/CompilerIdCXX.exe"

Determining if the C compiler works passed with the following output:
Change Dir: C:/Users/Christopher/Work/Education/Graphics/graphics/programs/program3/build/CMakeFiles/CMakeTmp

Run Build Command:"C:/Program Files (x86)/MSBuild/14.0/bin/MSBuild.exe" "cmTC_3a986.vcxproj" "/p:Configuration=Debug" "/p:VisualStudioVersion=14.0"
Microsoft (R) Build Engine version 14.0.25420.1
Copyright (C) Microsoft Corporation. All rights reserved.

Build started 4/26/2018 5:19:25 AM.
Project "C:\Users\Christopher\Work\Education\Graphics\graphics\programs\program3\build\CMakeFiles\CMakeTmp\cmTC_3a986.vcxproj" on node 1 (default targets).
PrepareForBuild:
  Creating directory "cmTC_3a986.dir\Debug\".
  Creating directory "C:\Users\Christopher\Work\Education\Graphics\graphics\programs\program3\build\CMakeFiles\CMakeTmp\Debug\".
  Creating directory "cmTC_3a986.dir\Debug\cmTC_3a986.tlog\".
InitializeBuildStatus:
  Creating "cmTC_3a986.dir\Debug\cmTC_3a986.tlog\unsuccessfulbuild" because "AlwaysCreate" was specified.
ClCompile:
  C:\Program Files (x86)\Microsoft Visual Studio 14.0\VC\bin\CL.exe /c /Zi /W3 /WX- /Od /Ob0 /Oy- /D WIN32 /D _WINDOWS /D "CMAKE_INTDIR=\"Debug\"" /D _MBCS /Gm- /RTC1 /MDd /GS /fp:precise /Zc:wchar_t /Zc:forScope /Zc:inline /Fo"cmTC_3a986.dir\Debug\\" /Fd"cmTC_3a986.dir\Debug\vc140.pdb" /Gd /TC /analyze- /errorReport:queue C:\Users\Christopher\Work\Education\Graphics\graphics\programs\program3\build\CMakeFiles\CMakeTmp\testCCompiler.c
  Microsoft (R) C/C++ Optimizing Compiler Version 19.00.24215.1 for x86
  Copyright (C) Microsoft Corporation.  All rights reserved.
  
  cl /c /Zi /W3 /WX- /Od /Ob0 /Oy- /D WIN32 /D _WINDOWS /D "CMAKE_INTDIR=\"Debug\"" /D _MBCS /Gm- /RTC1 /MDd /GS /fp:precise /Zc:wchar_t /Zc:forScope /Zc:inline /Fo"cmTC_3a986.dir\Debug\\" /Fd"cmTC_3a986.dir\Debug\vc140.pdb" /Gd /TC /analyze- /errorReport:queue C:\Users\Christopher\Work\Education\Graphics\graphics\programs\program3\build\CMakeFiles\CMakeTmp\testCCompiler.c
  
  testCCompiler.c
Link:
  C:\Program Files (x86)\Microsoft Visual Studio 14.0\VC\bin\link.exe /ERRORREPORT:QUEUE /OUT:"C:\Users\Christopher\Work\Education\Graphics\graphics\programs\program3\build\CMakeFiles\CMakeTmp\Debug\cmTC_3a986.exe" /INCREMENTAL /NOLOGO kernel32.lib user32.lib gdi32.lib winspool.lib shell32.lib ole32.lib oleaut32.lib uuid.lib comdlg32.lib advapi32.lib /MANIFEST /MANIFESTUAC:"level='asInvoker' uiAccess='false'" /manifest:embed /DEBUG /PDB:"C:/Users/Christopher/Work/Education/Graphics/graphics/programs/program3/build/CMakeFiles/CMakeTmp/Debug/cmTC_3a986.pdb" /SUBSYSTEM:CONSOLE /TLBID:1 /DYNAMICBASE /NXCOMPAT /IMPLIB:"C:/Users/Christopher/Work/Education/Graphics/graphics/programs/program3/build/CMakeFiles/CMakeTmp/Debug/cmTC_3a986.lib" /MACHINE:X86 /SAFESEH  /machine:X86 cmTC_3a986.dir\Debug\testCCompiler.obj
  cmTC_3a986.vcxproj -> C:\Users\Christopher\Work\Education\Graphics\graphics\programs\program3\build\CMakeFiles\CMakeTmp\Debug\cmTC_3a986.exe
  cmTC_3a986.vcxproj -> C:/Users/Christopher/Work/Education/Graphics/graphics/programs/program3/build/CMakeFiles/CMakeTmp/Debug/cmTC_3a986.pdb (Full PDB)
FinalizeBuildStatus:
  Deleting file "cmTC_3a986.dir\Debug\cmTC_3a986.tlog\unsuccessfulbuild".
  Touching "cmTC_3a986.dir\Debug\cmTC_3a986.tlog\cmTC_3a986.lastbuildstate".
Done Building Project "C:\Users\Christopher\Work\Education\Graphics\graphics\programs\program3\build\CMakeFiles\CMakeTmp\cmTC_3a986.vcxproj" (default targets).

Build succeeded.
    0 Warning(s)
    0 Error(s)

Time Elapsed 00:00:01.13


Detecting C compiler ABI info compiled with the following output:
Change Dir: C:/Users/Christopher/Work/Education/Graphics/graphics/programs/program3/build/CMakeFiles/CMakeTmp

Run Build Command:"C:/Program Files (x86)/MSBuild/14.0/bin/MSBuild.exe" "cmTC_f86ea.vcxproj" "/p:Configuration=Debug" "/p:VisualStudioVersion=14.0"
Microsoft (R) Build Engine version 14.0.25420.1
Copyright (C) Microsoft Corporation. All rights reserved.

Build started 4/26/2018 5:19:26 AM.
Project "C:\Users\Christopher\Work\Education\Graphics\graphics\programs\program3\build\CMakeFiles\CMakeTmp\cmTC_f86ea.vcxproj" on node 1 (default targets).
PrepareForBuild:
  Creating directory "cmTC_f86ea.dir\Debug\".
  Creating directory "C:\Users\Christopher\Work\Education\Graphics\graphics\programs\program3\build\CMakeFiles\CMakeTmp\Debug\".
  Creating directory "cmTC_f86ea.dir\Debug\cmTC_f86ea.tlog\".
InitializeBuildStatus:
  Creating "cmTC_f86ea.dir\Debug\cmTC_f86ea.tlog\unsuccessfulbuild" because "AlwaysCreate" was specified.
ClCompile:
  C:\Program Files (x86)\Microsoft Visual Studio 14.0\VC\bin\CL.exe /c /Zi /W3 /WX- /Od /Ob0 /Oy- /D WIN32 /D _WINDOWS /D "CMAKE_INTDIR=\"Debug\"" /D _MBCS /Gm- /RTC1 /MDd /GS /fp:precise /Zc:wchar_t /Zc:forScope /Zc:inline /Fo"cmTC_f86ea.dir\Debug\\" /Fd"cmTC_f86ea.dir\Debug\vc140.pdb" /Gd /TC /analyze- /errorReport:queue "C:\Users\Christopher\Work\Spring\CMake\share\cmake-3.10\Modules\CMakeCCompilerABI.c"
  Microsoft (R) C/C++ Optimizing Compiler Version 19.00.24215.1 for x86
  Copyright (C) Microsoft Corporation.  All rights reserved.
  
  cl /c /Zi /W3 /WX- /Od /Ob0 /Oy- /D WIN32 /D _WINDOWS /D "CMAKE_INTDIR=\"Debug\"" /D _MBCS /Gm- /RTC1 /MDd /GS /fp:precise /Zc:wchar_t /Zc:forScope /Zc:inline /Fo"cmTC_f86ea.dir\Debug\\" /Fd"cmTC_f86ea.dir\Debug\vc140.pdb" /Gd /TC /analyze- /errorReport:queue "C:\Users\Christopher\Work\Spring\CMake\share\cmake-3.10\Modules\CMakeCCompilerABI.c"
  
  CMakeCCompilerABI.c
Link:
  C:\Program Files (x86)\Microsoft Visual Studio 14.0\VC\bin\link.exe /ERRORREPORT:QUEUE /OUT:"C:\Users\Christopher\Work\Education\Graphics\graphics\programs\program3\build\CMakeFiles\CMakeTmp\Debug\cmTC_f86ea.exe" /INCREMENTAL /NOLOGO kernel32.lib user32.lib gdi32.lib winspool.lib shell32.lib ole32.lib oleaut32.lib uuid.lib comdlg32.lib advapi32.lib /MANIFEST /MANIFESTUAC:"level='asInvoker' uiAccess='false'" /manifest:embed /DEBUG /PDB:"C:/Users/Christopher/Work/Education/Graphics/graphics/programs/program3/build/CMakeFiles/CMakeTmp/Debug/cmTC_f86ea.pdb" /SUBSYSTEM:CONSOLE /TLBID:1 /DYNAMICBASE /NXCOMPAT /IMPLIB:"C:/Users/Christopher/Work/Education/Graphics/graphics/programs/program3/build/CMakeFiles/CMakeTmp/Debug/cmTC_f86ea.lib" /MACHINE:X86 /SAFESEH  /machine:X86 cmTC_f86ea.dir\Debug\CMakeCCompilerABI.obj
  cmTC_f86ea.vcxproj -> C:\Users\Christopher\Work\Education\Graphics\graphics\programs\program3\build\CMakeFiles\CMakeTmp\Debug\cmTC_f86ea.exe
  cmTC_f86ea.vcxproj -> C:/Users/Christopher/Work/Education/Graphics/graphics/programs/program3/build/CMakeFiles/CMakeTmp/Debug/cmTC_f86ea.pdb (Full PDB)
FinalizeBuildStatus:
  Deleting file "cmTC_f86ea.dir\Debug\cmTC_f86ea.tlog\unsuccessfulbuild".
  Touching "cmTC_f86ea.dir\Debug\cmTC_f86ea.tlog\cmTC_f86ea.lastbuildstate".
Done Building Project "C:\Users\Christopher\Work\Education\Graphics\graphics\programs\program3\build\CMakeFiles\CMakeTmp\cmTC_f86ea.vcxproj" (default targets).

Build succeeded.
    0 Warning(s)
    0 Error(s)

Time Elapsed 00:00:01.08


Determining if the CXX compiler works passed with the following output:
Change Dir: C:/Users/Christopher/Work/Education/Graphics/graphics/programs/program3/build/CMakeFiles/CMakeTmp

Run Build Command:"C:/Program Files (x86)/MSBuild/14.0/bin/MSBuild.exe" "cmTC_bb2b2.vcxproj" "/p:Configuration=Debug" "/p:VisualStudioVersion=14.0"
Microsoft (R) Build Engine version 14.0.25420.1
Copyright (C) Microsoft Corporation. All rights reserved.

Build started 4/26/2018 5:19:28 AM.
Project "C:\Users\Christopher\Work\Education\Graphics\graphics\programs\program3\build\CMakeFiles\CMakeTmp\cmTC_bb2b2.vcxproj" on node 1 (default targets).
PrepareForBuild:
  Creating directory "cmTC_bb2b2.dir\Debug\".
  Creating directory "C:\Users\Christopher\Work\Education\Graphics\graphics\programs\program3\build\CMakeFiles\CMakeTmp\Debug\".
  Creating directory "cmTC_bb2b2.dir\Debug\cmTC_bb2b2.tlog\".
InitializeBuildStatus:
  Creating "cmTC_bb2b2.dir\Debug\cmTC_bb2b2.tlog\unsuccessfulbuild" because "AlwaysCreate" was specified.
ClCompile:
  C:\Program Files (x86)\Microsoft Visual Studio 14.0\VC\bin\CL.exe /c /Zi /W3 /WX- /Od /Ob0 /Oy- /D WIN32 /D _WINDOWS /D "CMAKE_INTDIR=\"Debug\"" /D _MBCS /Gm- /EHsc /RTC1 /MDd /GS /fp:precise /Zc:wchar_t /Zc:forScope /Zc:inline /GR /Fo"cmTC_bb2b2.dir\Debug\\" /Fd"cmTC_bb2b2.dir\Debug\vc140.pdb" /Gd /TP /analyze- /errorReport:queue C:\Users\Christopher\Work\Education\Graphics\graphics\programs\program3\build\CMakeFiles\CMakeTmp\testCXXCompiler.cxx
  Microsoft (R) C/C++ Optimizing Compiler Version 19.00.24215.1 for x86
  Copyright (C) Microsoft Corporation.  All rights reserved.
  
  cl /c /Zi /W3 /WX- /Od /Ob0 /Oy- /D WIN32 /D _WINDOWS /D "CMAKE_INTDIR=\"Debug\"" /D _MBCS /Gm- /EHsc /RTC1 /MDd /GS /fp:precise /Zc:wchar_t /Zc:forScope /Zc:inline /GR /Fo"cmTC_bb2b2.dir\Debug\\" /Fd"cmTC_bb2b2.dir\Debug\vc140.pdb" /Gd /TP /analyze- /errorReport:queue C:\Users\Christopher\Work\Education\Graphics\graphics\programs\program3\build\CMakeFiles\CMakeTmp\testCXXCompiler.cxx
  
  testCXXCompiler.cxx
Link:
  C:\Program Files (x86)\Microsoft Visual Studio 14.0\VC\bin\link.exe /ERRORREPORT:QUEUE /OUT:"C:\Users\Christopher\Work\Education\Graphics\graphics\programs\program3\build\CMakeFiles\CMakeTmp\Debug\cmTC_bb2b2.exe" /INCREMENTAL /NOLOGO kernel32.lib user32.lib gdi32.lib winspool.lib shell32.lib ole32.lib oleaut32.lib uuid.lib comdlg32.lib advapi32.lib /MANIFEST /MANIFESTUAC:"level='asInvoker' uiAccess='false'" /manifest:embed /DEBUG /PDB:"C:/Users/Christopher/Work/Education/Graphics/graphics/programs/program3/build/CMakeFiles/CMakeTmp/Debug/cmTC_bb2b2.pdb" /SUBSYSTEM:CONSOLE /TLBID:1 /DYNAMICBASE /NXCOMPAT /IMPLIB:"C:/Users/Christopher/Work/Education/Graphics/graphics/programs/program3/build/CMakeFiles/CMakeTmp/Debug/cmTC_bb2b2.lib" /MACHINE:X86 /SAFESEH  /machine:X86 cmTC_bb2b2.dir\Debug\testCXXCompiler.obj
  cmTC_bb2b2.vcxproj -> C:\Users\Christopher\Work\Education\Graphics\graphics\programs\program3\build\CMakeFiles\CMakeTmp\Debug\cmTC_bb2b2.exe
  cmTC_bb2b2.vcxproj -> C:/Users/Christopher/Work/Education/Graphics/graphics/programs/program3/build/CMakeFiles/CMakeTmp/Debug/cmTC_bb2b2.pdb (Full PDB)
FinalizeBuildStatus:
  Deleting file "cmTC_bb2b2.dir\Debug\cmTC_bb2b2.tlog\unsuccessfulbuild".
  Touching "cmTC_bb2b2.dir\Debug\cmTC_bb2b2.tlog\cmTC_bb2b2.lastbuildstate".
Done Building Project "C:\Users\Christopher\Work\Education\Graphics\graphics\programs\program3\build\CMakeFiles\CMakeTmp\cmTC_bb2b2.vcxproj" (default targets).

Build succeeded.
    0 Warning(s)
    0 Error(s)

Time Elapsed 00:00:01.10


Detecting CXX compiler ABI info compiled with the following output:
Change Dir: C:/Users/Christopher/Work/Education/Graphics/graphics/programs/program3/build/CMakeFiles/CMakeTmp

Run Build Command:"C:/Program Files (x86)/MSBuild/14.0/bin/MSBuild.exe" "cmTC_743df.vcxproj" "/p:Configuration=Debug" "/p:VisualStudioVersion=14.0"
Microsoft (R) Build Engine version 14.0.25420.1
Copyright (C) Microsoft Corporation. All rights reserved.

Build started 4/26/2018 5:19:29 AM.
Project "C:\Users\Christopher\Work\Education\Graphics\graphics\programs\program3\build\CMakeFiles\CMakeTmp\cmTC_743df.vcxproj" on node 1 (default targets).
PrepareForBuild:
  Creating directory "cmTC_743df.dir\Debug\".
  Creating directory "C:\Users\Christopher\Work\Education\Graphics\graphics\programs\program3\build\CMakeFiles\CMakeTmp\Debug\".
  Creating directory "cmTC_743df.dir\Debug\cmTC_743df.tlog\".
InitializeBuildStatus:
  Creating "cmTC_743df.dir\Debug\cmTC_743df.tlog\unsuccessfulbuild" because "AlwaysCreate" was specified.
ClCompile:
  C:\Program Files (x86)\Microsoft Visual Studio 14.0\VC\bin\CL.exe /c /Zi /W3 /WX- /Od /Ob0 /Oy- /D WIN32 /D _WINDOWS /D "CMAKE_INTDIR=\"Debug\"" /D _MBCS /Gm- /EHsc /RTC1 /MDd /GS /fp:precise /Zc:wchar_t /Zc:forScope /Zc:inline /GR /Fo"cmTC_743df.dir\Debug\\" /Fd"cmTC_743df.dir\Debug\vc140.pdb" /Gd /TP /analyze- /errorReport:queue "C:\Users\Christopher\Work\Spring\CMake\share\cmake-3.10\Modules\CMakeCXXCompilerABI.cpp"
  Microsoft (R) C/C++ Optimizing Compiler Version 19.00.24215.1 for x86
  Copyright (C) Microsoft Corporation.  All rights reserved.
  
  cl /c /Zi /W3 /WX- /Od /Ob0 /Oy- /D WIN32 /D _WINDOWS /D "CMAKE_INTDIR=\"Debug\"" /D _MBCS /Gm- /EHsc /RTC1 /MDd /GS /fp:precise /Zc:wchar_t /Zc:forScope /Zc:inline /GR /Fo"cmTC_743df.dir\Debug\\" /Fd"cmTC_743df.dir\Debug\vc140.pdb" /Gd /TP /analyze- /errorReport:queue "C:\Users\Christopher\Work\Spring\CMake\share\cmake-3.10\Modules\CMakeCXXCompilerABI.cpp"
  
  CMakeCXXCompilerABI.cpp
Link:
  C:\Program Files (x86)\Microsoft Visual Studio 14.0\VC\bin\link.exe /ERRORREPORT:QUEUE /OUT:"C:\Users\Christopher\Work\Education\Graphics\graphics\programs\program3\build\CMakeFiles\CMakeTmp\Debug\cmTC_743df.exe" /INCREMENTAL /NOLOGO kernel32.lib user32.lib gdi32.lib winspool.lib shell32.lib ole32.lib oleaut32.lib uuid.lib comdlg32.lib advapi32.lib /MANIFEST /MANIFESTUAC:"level='asInvoker' uiAccess='false'" /manifest:embed /DEBUG /PDB:"C:/Users/Christopher/Work/Education/Graphics/graphics/programs/program3/build/CMakeFiles/CMakeTmp/Debug/cmTC_743df.pdb" /SUBSYSTEM:CONSOLE /TLBID:1 /DYNAMICBASE /NXCOMPAT /IMPLIB:"C:/Users/Christopher/Work/Education/Graphics/graphics/programs/program3/build/CMakeFiles/CMakeTmp/Debug/cmTC_743df.lib" /MACHINE:X86 /SAFESEH  /machine:X86 cmTC_743df.dir\Debug\CMakeCXXCompilerABI.obj
  cmTC_743df.vcxproj -> C:\Users\Christopher\Work\Education\Graphics\graphics\programs\program3\build\CMakeFiles\CMakeTmp\Debug\cmTC_743df.exe
  cmTC_743df.vcxproj -> C:/Users/Christopher/Work/Education/Graphics/graphics/programs/program3/build/CMakeFiles/CMakeTmp/Debug/cmTC_743df.pdb (Full PDB)
FinalizeBuildStatus:
  Deleting file "cmTC_743df.dir\Debug\cmTC_743df.tlog\unsuccessfulbuild".
  Touching "cmTC_743df.dir\Debug\cmTC_743df.tlog\cmTC_743df.lastbuildstate".
Done Building Project "C:\Users\Christopher\Work\Education\Graphics\graphics\programs\program3\build\CMakeFiles\CMakeTmp\cmTC_743df.vcxproj" (default targets).

Build succeeded.
    0 Warning(s)
    0 Error(s)

Time Elapsed 00:00:01.11




Detecting CXX [] compiler features compiled with the following output:
Change Dir: C:/Users/Christopher/Work/Education/Graphics/graphics/programs/program3/build/CMakeFiles/CMakeTmp

Run Build Command:"C:/Program Files (x86)/MSBuild/14.0/bin/MSBuild.exe" "cmTC_ba95a.vcxproj" "/p:Configuration=Debug" "/p:VisualStudioVersion=14.0"
Microsoft (R) Build Engine version 14.0.25420.1
Copyright (C) Microsoft Corporation. All rights reserved.

Build started 4/26/2018 5:19:31 AM.
Project "C:\Users\Christopher\Work\Education\Graphics\graphics\programs\program3\build\CMakeFiles\CMakeTmp\cmTC_ba95a.vcxproj" on node 1 (default targets).
PrepareForBuild:
  Creating directory "cmTC_ba95a.dir\Debug\".
  Creating directory "C:\Users\Christopher\Work\Education\Graphics\graphics\programs\program3\build\CMakeFiles\CMakeTmp\Debug\".
  Creating directory "cmTC_ba95a.dir\Debug\cmTC_ba95a.tlog\".
InitializeBuildStatus:
  Creating "cmTC_ba95a.dir\Debug\cmTC_ba95a.tlog\unsuccessfulbuild" because "AlwaysCreate" was specified.
ClCompile:
  C:\Program Files (x86)\Microsoft Visual Studio 14.0\VC\bin\CL.exe /c /Zi /W3 /WX- /Od /Ob0 /Oy- /D WIN32 /D _WINDOWS /D "CMAKE_INTDIR=\"Debug\"" /D _MBCS /Gm- /EHsc /RTC1 /MDd /GS /fp:precise /Zc:wchar_t /Zc:forScope /Zc:inline /GR /Fo"cmTC_ba95a.dir\Debug\\" /Fd"cmTC_ba95a.dir\Debug\vc140.pdb" /Gd /TP /analyze- /errorReport:queue C:\Users\Christopher\Work\Education\Graphics\graphics\programs\program3\build\CMakeFiles\feature_tests.cxx
  Microsoft (R) C/C++ Optimizing Compiler Version 19.00.24215.1 for x86
  Copyright (C) Microsoft Corporation.  All rights reserved.
  
  cl /c /Zi /W3 /WX- /Od /Ob0 /Oy- /D WIN32 /D _WINDOWS /D "CMAKE_INTDIR=\"Debug\"" /D _MBCS /Gm- /EHsc /RTC1 /MDd /GS /fp:precise /Zc:wchar_t /Zc:forScope /Zc:inline /GR /Fo"cmTC_ba95a.dir\Debug\\" /Fd"cmTC_ba95a.dir\Debug\vc140.pdb" /Gd /TP /analyze- /errorReport:queue C:\Users\Christopher\Work\Education\Graphics\graphics\programs\program3\build\CMakeFiles\feature_tests.cxx
  
  feature_tests.cxx
Link:
  C:\Program Files (x86)\Microsoft Visual Studio 14.0\VC\bin\link.exe /ERRORREPORT:QUEUE /OUT:"C:\Users\Christopher\Work\Education\Graphics\graphics\programs\program3\build\CMakeFiles\CMakeTmp\Debug\cmTC_ba95a.exe" /INCREMENTAL /NOLOGO kernel32.lib user32.lib gdi32.lib winspool.lib shell32.lib ole32.lib oleaut32.lib uuid.lib comdlg32.lib advapi32.lib /MANIFEST /MANIFESTUAC:"level='asInvoker' uiAccess='false'" /manifest:embed /DEBUG /PDB:"C:/Users/Christopher/Work/Education/Graphics/graphics/programs/program3/build/CMakeFiles/CMakeTmp/Debug/cmTC_ba95a.pdb" /SUBSYSTEM:CONSOLE /TLBID:1 /DYNAMICBASE /NXCOMPAT /IMPLIB:"C:/Users/Christopher/Work/Education/Graphics/graphics/programs/program3/build/CMakeFiles/CMakeTmp/Debug/cmTC_ba95a.lib" /MACHINE:X86 /SAFESEH  /machine:X86 cmTC_ba95a.dir\Debug\feature_tests.obj
  cmTC_ba95a.vcxproj -> C:\Users\Christopher\Work\Education\Graphics\graphics\programs\program3\build\CMakeFiles\CMakeTmp\Debug\cmTC_ba95a.exe
  cmTC_ba95a.vcxproj -> C:/Users/Christopher/Work/Education/Graphics/graphics/programs/program3/build/CMakeFiles/CMakeTmp/Debug/cmTC_ba95a.pdb (Full PDB)
FinalizeBuildStatus:
  Deleting file "cmTC_ba95a.dir\Debug\cmTC_ba95a.tlog\unsuccessfulbuild".
  Touching "cmTC_ba95a.dir\Debug\cmTC_ba95a.tlog\cmTC_ba95a.lastbuildstate".
Done Building Project "C:\Users\Christopher\Work\Education\Graphics\graphics\programs\program3\build\CMakeFiles\CMakeTmp\cmTC_ba95a.vcxproj" (default targets).

Build succeeded.
    0 Warning(s)
    0 Error(s)

Time Elapsed 00:00:01.11


    Feature record: CXX_FEATURE:0cxx_aggregate_default_initializers
    Feature record: CXX_FEATURE:1cxx_alias_templates
    Feature record: CXX_FEATURE:1cxx_alignas
    Feature record: CXX_FEATURE:1cxx_alignof
    Feature record: CXX_FEATURE:1cxx_attributes
    Feature record: CXX_FEATURE:1cxx_attribute_deprecated
    Feature record: CXX_FEATURE:1cxx_auto_type
    Feature record: CXX_FEATURE:1cxx_binary_literals
    Feature record: CXX_FEATURE:1cxx_constexpr
    Feature record: CXX_FEATURE:1cxx_contextual_conversions
    Feature record: CXX_FEATURE:1cxx_decltype
    Feature record: CXX_FEATURE:1cxx_decltype_auto
    Feature record: CXX_FEATURE:1cxx_default_function_template_args
    Feature record: CXX_FEATURE:1cxx_defaulted_functions
    Feature record: CXX_FEATURE:1cxx_defaulted_move_initializers
    Feature record: CXX_FEATURE:1cxx_delegating_constructors
    Feature record: CXX_FEATURE:1cxx_deleted_functions
    Feature record: CXX_FEATURE:1cxx_digit_separators
    Feature record: CXX_FEATURE:1cxx_enum_forward_declarations
    Feature record: CXX_FEATURE:1cxx_explicit_conversions
    Feature record: CXX_FEATURE:1cxx_extended_friend_declarations
    Feature record: CXX_FEATURE:1cxx_extern_templates
    Feature record: CXX_FEATURE:1cxx_final
    Feature record: CXX_FEATURE:1cxx_func_identifier
    Feature record: CXX_FEATURE:1cxx_generalized_initializers
    Feature record: CXX_FEATURE:1cxx_generic_lambdas
    Feature record: CXX_FEATURE:1cxx_inheriting_constructors
    Feature record: CXX_FEATURE:1cxx_inline_namespaces
    Feature record: CXX_FEATURE:1cxx_lambdas
    Feature record: CXX_FEATURE:1cxx_lambda_init_captures
    Feature record: CXX_FEATURE:1cxx_local_type_template_args
    Feature record: CXX_FEATURE:1cxx_long_long_type
    Feature record: CXX_FEATURE:1cxx_noexcept
    Feature record: CXX_FEATURE:1cxx_nonstatic_member_init
    Feature record: CXX_FEATURE:1cxx_nullptr
    Feature record: CXX_FEATURE:1cxx_override
    Feature record: CXX_FEATURE:1cxx_range_for
    Feature record: CXX_FEATURE:1cxx_raw_string_literals
    Feature record: CXX_FEATURE:1cxx_reference_qualified_functions
    Feature record: CXX_FEATURE:1cxx_return_type_deduction
    Feature record: CXX_FEATURE:1cxx_right_angle_brackets
    Feature record: CXX_FEATURE:1cxx_rvalue_references
    Feature record: CXX_FEATURE:1cxx_sizeof_member
    Feature record: CXX_FEATURE:1cxx_static_assert
    Feature record: CXX_FEATURE:1cxx_strong_enums
    Feature record: CXX_FEATURE:1cxx_template_template_parameters
    Feature record: CXX_FEATURE:1cxx_thread_local
    Feature record: CXX_FEATURE:1cxx_trailing_return_types
    Feature record: CXX_FEATURE:1cxx_unicode_literals
    Feature record: CXX_FEATURE:1cxx_uniform_initialization
    Feature record: CXX_FEATURE:1cxx_unrestricted_unions
    Feature record: CXX_FEATURE:1cxx_user_literals
    Feature record: CXX_FEATURE:1cxx_variable_templates
    Feature record: CXX_FEATURE:1cxx_variadic_macros
    Feature record: CXX_FEATURE:1cxx_variadic_templates
