^C:\USERS\CHRISTOPHER\WORK\EDUCATION\GRAPHICS\GRAPHICS\LABS\LAB0\MAIN.CPP
C:\USERS\CHRISTOPHER\WORK\EDUCATION\GRAPHICS\GRAPHICS\LABS\LAB0\BUILD\LAB0.DIR\DEBUG\VC140.PDB
C:\USERS\CHRISTOPHER\WORK\EDUCATION\GRAPHICS\GRAPHICS\LABS\LAB0\BUILD\LAB0.DIR\DEBUG\MAIN.OBJ
