^C:\USERS\CHRISTOPHER\WORK\EDUCATION\GRAPHICS\GRAPHICS\PROGRAMS\PROGRAM1\BUILD\CMAKEFILES\93D298BBB37954174E08A3004C893C4F\GENERATE.STAMP.RULE
C:\USERS\CHRISTOPHER\WORK\EDUCATION\GRAPHICS\GRAPHICS\LABS\LIB\GLFW\CMAKE\MODULES\FINDVULKAN.CMAKE
C:\USERS\CHRISTOPHER\WORK\EDUCATION\GRAPHICS\GRAPHICS\LABS\LIB\GLFW\CMAKELISTS.TXT
C:\USERS\CHRISTOPHER\WORK\EDUCATION\GRAPHICS\GRAPHICS\LABS\LIB\GLFW\CMAKE_UNINSTALL.CMAKE.IN
C:\USERS\CHRISTOPHER\WORK\EDUCATION\GRAPHICS\GRAPHICS\LABS\LIB\GLFW\SRC\CMAKELISTS.TXT
C:\USERS\CHRISTOPHER\WORK\EDUCATION\GRAPHICS\GRAPHICS\LABS\LIB\GLFW\SRC\GLFW3.PC.IN
C:\USERS\CHRISTOPHER\WORK\EDUCATION\GRAPHICS\GRAPHICS\LABS\LIB\GLFW\SRC\GLFW3CONFIG.CMAKE.IN
C:\USERS\CHRISTOPHER\WORK\EDUCATION\GRAPHICS\GRAPHICS\LABS\LIB\GLFW\SRC\GLFW_CONFIG.H.IN
C:\USERS\CHRISTOPHER\WORK\EDUCATION\GRAPHICS\GRAPHICS\PROGRAMS\PROGRAM1\CMAKELISTS.TXT
C:\USERS\CHRISTOPHER\WORK\EDUCATION\GRAPHICS\GRAPHICS\PROGRAMS\PROGRAM1\BUILD\CMAKEFILES\3.10.1\CMAKECCOMPILER.CMAKE
C:\USERS\CHRISTOPHER\WORK\EDUCATION\GRAPHICS\GRAPHICS\PROGRAMS\PROGRAM1\BUILD\CMAKEFILES\3.10.1\CMAKECXXCOMPILER.CMAKE
C:\USERS\CHRISTOPHER\WORK\EDUCATION\GRAPHICS\GRAPHICS\PROGRAMS\PROGRAM1\BUILD\CMAKEFILES\3.10.1\CMAKERCCOMPILER.CMAKE
C:\USERS\CHRISTOPHER\WORK\EDUCATION\GRAPHICS\GRAPHICS\PROGRAMS\PROGRAM1\BUILD\CMAKEFILES\3.10.1\CMAKESYSTEM.CMAKE
C:\USERS\CHRISTOPHER\WORK\SPRING\CMAKE\SHARE\CMAKE-3.10\MODULES\BASICCONFIGVERSION-SAMEMAJORVERSION.CMAKE.IN
C:\USERS\CHRISTOPHER\WORK\SPRING\CMAKE\SHARE\CMAKE-3.10\MODULES\CMAKECINFORMATION.CMAKE
C:\USERS\CHRISTOPHER\WORK\SPRING\CMAKE\SHARE\CMAKE-3.10\MODULES\CMAKECXXINFORMATION.CMAKE
C:\USERS\CHRISTOPHER\WORK\SPRING\CMAKE\SHARE\CMAKE-3.10\MODULES\CMAKECOMMONLANGUAGEINCLUDE.CMAKE
C:\USERS\CHRISTOPHER\WORK\SPRING\CMAKE\SHARE\CMAKE-3.10\MODULES\CMAKEGENERICSYSTEM.CMAKE
C:\USERS\CHRISTOPHER\WORK\SPRING\CMAKE\SHARE\CMAKE-3.10\MODULES\CMAKELANGUAGEINFORMATION.CMAKE
C:\USERS\CHRISTOPHER\WORK\SPRING\CMAKE\SHARE\CMAKE-3.10\MODULES\CMAKEPACKAGECONFIGHELPERS.CMAKE
C:\USERS\CHRISTOPHER\WORK\SPRING\CMAKE\SHARE\CMAKE-3.10\MODULES\CMAKERCINFORMATION.CMAKE
C:\USERS\CHRISTOPHER\WORK\SPRING\CMAKE\SHARE\CMAKE-3.10\MODULES\CMAKESYSTEMSPECIFICINFORMATION.CMAKE
C:\USERS\CHRISTOPHER\WORK\SPRING\CMAKE\SHARE\CMAKE-3.10\MODULES\CMAKESYSTEMSPECIFICINITIALIZE.CMAKE
C:\USERS\CHRISTOPHER\WORK\SPRING\CMAKE\SHARE\CMAKE-3.10\MODULES\CHECKINCLUDEFILE.CMAKE
C:\USERS\CHRISTOPHER\WORK\SPRING\CMAKE\SHARE\CMAKE-3.10\MODULES\CHECKLIBRARYEXISTS.CMAKE
C:\USERS\CHRISTOPHER\WORK\SPRING\CMAKE\SHARE\CMAKE-3.10\MODULES\CHECKSYMBOLEXISTS.CMAKE
C:\USERS\CHRISTOPHER\WORK\SPRING\CMAKE\SHARE\CMAKE-3.10\MODULES\COMPILER\CMAKECOMMONCOMPILERMACROS.CMAKE
C:\USERS\CHRISTOPHER\WORK\SPRING\CMAKE\SHARE\CMAKE-3.10\MODULES\COMPILER\MSVC-CXX.CMAKE
C:\USERS\CHRISTOPHER\WORK\SPRING\CMAKE\SHARE\CMAKE-3.10\MODULES\FINDPACKAGEHANDLESTANDARDARGS.CMAKE
C:\USERS\CHRISTOPHER\WORK\SPRING\CMAKE\SHARE\CMAKE-3.10\MODULES\FINDPACKAGEMESSAGE.CMAKE
C:\USERS\CHRISTOPHER\WORK\SPRING\CMAKE\SHARE\CMAKE-3.10\MODULES\FINDTHREADS.CMAKE
C:\USERS\CHRISTOPHER\WORK\SPRING\CMAKE\SHARE\CMAKE-3.10\MODULES\PLATFORM\WINDOWS-MSVC-C.CMAKE
C:\USERS\CHRISTOPHER\WORK\SPRING\CMAKE\SHARE\CMAKE-3.10\MODULES\PLATFORM\WINDOWS-MSVC-CXX.CMAKE
C:\USERS\CHRISTOPHER\WORK\SPRING\CMAKE\SHARE\CMAKE-3.10\MODULES\PLATFORM\WINDOWS-MSVC.CMAKE
C:\USERS\CHRISTOPHER\WORK\SPRING\CMAKE\SHARE\CMAKE-3.10\MODULES\PLATFORM\WINDOWS.CMAKE
C:\USERS\CHRISTOPHER\WORK\SPRING\CMAKE\SHARE\CMAKE-3.10\MODULES\PLATFORM\WINDOWSPATHS.CMAKE
C:\USERS\CHRISTOPHER\WORK\SPRING\CMAKE\SHARE\CMAKE-3.10\MODULES\WRITEBASICCONFIGVERSIONFILE.CMAKE
