#Command:  
C:\USERS\CHRISTOPHER\APPDATA\LOCAL\MICROSOFT\APPLICATIONINSIGHTS\VSTELAIF-312CBD79-9DBB-4C48-A7DA-3CC2A931CB70\20180116222352_86E82A8ABAC24F0E966DC1BCA5ED7597.TRN
C:\USERS\CHRISTOPHER\APPDATA\LOCAL\MICROSOFT\CLR_V4.0_32\USAGELOGS\VCTIP.EXE.LOG
