﻿  Building Custom Rule C:/Users/Christopher/Work/Education/Graphics/graphics/labs/lib/glfw/src/CMakeLists.txt
  CMake does not need to re-run because C:/Users/Christopher/Work/Education/Graphics/graphics/programs/program3/build/glfw/src/CMakeFiles/generate.stamp is up-to-date.
  context.c
  init.c
  input.c
  monitor.c
  vulkan.c
  window.c
  win32_init.c
  win32_joystick.c
  win32_monitor.c
  win32_time.c
  win32_thread.c
  win32_window.c
  wgl_context.c
  egl_context.c
  osmesa_context.c
  Generating Code...
  glfw.vcxproj -> C:\Users\Christopher\Work\Education\Graphics\graphics\programs\program3\build\glfw\src\Debug\glfw3.lib
