#Command:  
C:\PROGRAM FILES (X86)\MICROSOFT VISUAL STUDIO 14.0\VC\BIN\VCTIP.EXE
C:\WINDOWS\SYSTEM32\NTDLL.DLL
C:\WINDOWS\SYSTEM32\MSCOREE.DLL
C:\WINDOWS\SYSTEM32\KERNEL32.DLL
C:\WINDOWS\SYSTEM32\KERNELBASE.DLL
C:\PROGRAM FILES (X86)\MSBUILD\14.0\BIN\FILETRACKER32.DLL
C:\WINDOWS\SYSTEM32\ADVAPI32.DLL
C:\WINDOWS\SYSTEM32\MSVCRT.DLL
C:\WINDOWS\SYSTEM32\SECHOST.DLL
C:\WINDOWS\SYSTEM32\RPCRT4.DLL
C:\WINDOWS\SYSTEM32\SSPICLI.DLL
C:\WINDOWS\SYSTEM32\CRYPTBASE.DLL
C:\WINDOWS\SYSTEM32\BCRYPTPRIMITIVES.DLL
C:\WINDOWS\SYSTEM32\UCRTBASE.DLL
C:\WINDOWS\SYSTEM32\OLE32.DLL
C:\WINDOWS\SYSTEM32\COMBASE.DLL
C:\WINDOWS\SYSTEM32\GDI32.DLL
C:\WINDOWS\SYSTEM32\VCRUNTIME140.DLL
C:\WINDOWS\SYSTEM32\GDI32FULL.DLL
C:\WINDOWS\SYSTEM32\MSVCP_WIN.DLL
C:\WINDOWS\SYSTEM32\USER32.DLL
C:\WINDOWS\SYSTEM32\WIN32U.DLL
C:\WINDOWS\SYSTEM32\OLEAUT32.DLL
C:\WINDOWS\SYSTEM32\SHELL32.DLL
C:\WINDOWS\SYSTEM32\CFGMGR32.DLL
C:\WINDOWS\SYSTEM32\SHCORE.DLL
C:\WINDOWS\SYSTEM32\MSVCP140.DLL
C:\WINDOWS\SYSTEM32\WINDOWS.STORAGE.DLL
C:\WINDOWS\SYSTEM32\SHLWAPI.DLL
C:\WINDOWS\SYSTEM32\KERNEL.APPCORE.DLL
C:\WINDOWS\SYSTEM32\POWRPROF.DLL
C:\WINDOWS\SYSTEM32\PROFAPI.DLL
C:\WINDOWS\SYSTEM32\IMM32.DLL
C:\WINDOWS\MICROSOFT.NET\FRAMEWORK\V4.0.30319\MSCOREEI.DLL
C:\WINDOWS\SYSTEM32\VERSION.DLL
C:\WINDOWS\MICROSOFT.NET\FRAMEWORK\V4.0.30319\CLR.DLL
C:\WINDOWS\SYSTEM32\MSVCR120_CLR0400.DLL
C:\WINDOWS\ASSEMBLY\NATIVEIMAGES_V4.0.30319_32\MSCORLIB\7A53E85A72080284C5B5CD703DD282CB\MSCORLIB.NI.DLL
C:\WINDOWS\MICROSOFT.NET\FRAMEWORK\V4.0.30319\CLRJIT.DLL
C:\WINDOWS\ASSEMBLY\NATIVEIMAGES_V4.0.30319_32\SYSTEM\DD89797400D103ABFCFDD7E6C1829DD1\SYSTEM.NI.DLL
C:\WINDOWS\ASSEMBLY\NATIVEIMAGES_V4.0.30319_32\SYSTEM.CORE\95ADEBDC7528E7A8E4AE9685B1600F38\SYSTEM.CORE.NI.DLL
C:\WINDOWS\SYSTEM32\SQMAPI.DLL
C:\WINDOWS\SYSTEM32\BCRYPT.DLL
C:\WINDOWS\SYSTEM32\CLBCATQ.DLL
C:\WINDOWS\ASSEMBLY\NATIVEIMAGES_V4.0.30319_32\SYSTEM.DRAWING\BA23D79855FDF2077ADD750094BCD0F9\SYSTEM.DRAWING.NI.DLL
C:\WINDOWS\ASSEMBLY\NATIVEIMAGES_V4.0.30319_32\SYSTEM.WINDOWS.FORMS\7071684E37550C616CBA4F2C995A6B01\SYSTEM.WINDOWS.FORMS.NI.DLL
C:\WINDOWS\SYSTEM32\UXTHEME.DLL
C:\WINDOWS\SYSTEM32\MSCTF.DLL
C:\WINDOWS\WINSXS\X86_MICROSOFT.WINDOWS.GDIPLUS_6595B64144CCF1DF_1.1.16299.371_NONE_8E5FFB3502744564\GDIPLUS.DLL
C:\WINDOWS\SYSTEM32\WKSCLI.DLL
C:\WINDOWS\SYSTEM32\NETUTILS.DLL
C:\WINDOWS\ASSEMBLY\NATIVEIMAGES_V4.0.30319_32\SYSTEM.CONFIGURATION\09559970909D096BFFB1F8EB605CDDFB\SYSTEM.CONFIGURATION.NI.DLL
C:\WINDOWS\ASSEMBLY\NATIVEIMAGES_V4.0.30319_32\SYSTEM.XML\F2A690C7F588336EFBC341FEB9C9822B\SYSTEM.XML.NI.DLL
C:\WINDOWS\SYSTEM32\CRYPTSP.DLL
C:\WINDOWS\SYSTEM32\RSAENH.DLL
C:\WINDOWS\SYSTEM32\RASAPI32.DLL
C:\WINDOWS\SYSTEM32\RASMAN.DLL
C:\WINDOWS\SYSTEM32\RTUTILS.DLL
C:\WINDOWS\SYSTEM32\WS2_32.DLL
C:\WINDOWS\SYSTEM32\MSWSOCK.DLL
C:\WINDOWS\SYSTEM32\WINHTTP.DLL
C:\WINDOWS\SYSTEM32\IPHLPAPI.DLL
C:\WINDOWS\SYSTEM32\NSI.DLL
C:\WINDOWS\SYSTEM32\DHCPCSVC6.DLL
C:\WINDOWS\SYSTEM32\DHCPCSVC.DLL
C:\WINDOWS\SYSTEM32\DNSAPI.DLL
C:\WINDOWS\SYSTEM32\WINNSI.DLL
C:\PROGRAM FILES (X86)\BONJOUR\MDNSNSP.DLL
C:\WINDOWS\SYSTEM32\RASADHLP.DLL
C:\WINDOWS\SYSTEM32\FWPUCLNT.DLL
C:\WINDOWS\SYSTEM32\PSAPI.DLL
C:\WINDOWS\SYSTEM32\SECUR32.DLL
C:\WINDOWS\SYSTEM32\SCHANNEL.DLL
C:\WINDOWS\SYSTEM32\CRYPT32.DLL
C:\WINDOWS\SYSTEM32\MSASN1.DLL
C:\WINDOWS\SYSTEM32\MSKEYPROTECT.DLL
C:\WINDOWS\SYSTEM32\NCRYPT.DLL
C:\WINDOWS\SYSTEM32\NTASN1.DLL
C:\WINDOWS\SYSTEM32\NCRYPTSSLP.DLL
C:\WINDOWS\ASSEMBLY\NATIVEIMAGES_V4.0.30319_32\SYSTEM.XML.LINQ\87FBE25EF38C950240EEAFECCFFEE35F\SYSTEM.XML.LINQ.NI.DLL
C:\WINDOWS\MICROSOFT.NET\FRAMEWORK\V4.0.30319\DIASYMREADER.DLL
C:\WINDOWS\MICROSOFT.NET\FRAMEWORK\V4.0.30319\CLRCOMPRESSION.DLL
C:\WINDOWS\ASSEMBLY\NATIVEIMAGES_V4.0.30319_32\SYSTEM.NET.HTTP\74D5A9028EED15D1F703789B0ADE348C\SYSTEM.NET.HTTP.NI.DLL
C:\WINDOWS\SYSTEM32\WER.DLL
C:\WINDOWS\SYSTEM32\AEPIC.DLL
C:\WINDOWS\SYSTEM32\NTMARTA.DLL
C:\WINDOWS\SYSTEM32\SFC.DLL
C:\WINDOWS\SYSTEM32\SFC_OS.DLL
C:\WINDOWS\SYSTEM32\SETUPAPI.DLL
C:\WINDOWS\SYSTEM32\DBGHELP.DLL
C:\WINDOWS\SYSTEM32\DBGCORE.DLL
C:\PROGRAM FILES (X86)\MICROSOFT VISUAL STUDIO 14.0\VC\BIN\VCTIP.EXE
C:\WINDOWS\SYSTEM32\NTDLL.DLL
C:\WINDOWS\SYSTEM32\MSCOREE.DLL
C:\WINDOWS\SYSTEM32\KERNEL32.DLL
C:\WINDOWS\SYSTEM32\KERNELBASE.DLL
C:\PROGRAM FILES (X86)\MSBUILD\14.0\BIN\FILETRACKER32.DLL
C:\WINDOWS\SYSTEM32\ADVAPI32.DLL
C:\WINDOWS\SYSTEM32\MSVCRT.DLL
C:\WINDOWS\SYSTEM32\SECHOST.DLL
C:\WINDOWS\SYSTEM32\RPCRT4.DLL
C:\WINDOWS\SYSTEM32\SSPICLI.DLL
C:\WINDOWS\SYSTEM32\CRYPTBASE.DLL
C:\WINDOWS\SYSTEM32\BCRYPTPRIMITIVES.DLL
C:\WINDOWS\SYSTEM32\UCRTBASE.DLL
C:\WINDOWS\SYSTEM32\OLE32.DLL
C:\WINDOWS\SYSTEM32\COMBASE.DLL
C:\WINDOWS\SYSTEM32\GDI32.DLL
C:\WINDOWS\SYSTEM32\VCRUNTIME140.DLL
C:\WINDOWS\SYSTEM32\GDI32FULL.DLL
C:\WINDOWS\SYSTEM32\MSVCP_WIN.DLL
C:\WINDOWS\SYSTEM32\USER32.DLL
C:\WINDOWS\SYSTEM32\WIN32U.DLL
C:\WINDOWS\SYSTEM32\OLEAUT32.DLL
C:\WINDOWS\SYSTEM32\SHELL32.DLL
C:\WINDOWS\SYSTEM32\CFGMGR32.DLL
C:\WINDOWS\SYSTEM32\SHCORE.DLL
C:\WINDOWS\SYSTEM32\MSVCP140.DLL
C:\WINDOWS\SYSTEM32\WINDOWS.STORAGE.DLL
C:\WINDOWS\SYSTEM32\SHLWAPI.DLL
C:\WINDOWS\SYSTEM32\KERNEL.APPCORE.DLL
C:\WINDOWS\SYSTEM32\POWRPROF.DLL
C:\WINDOWS\SYSTEM32\PROFAPI.DLL
C:\WINDOWS\SYSTEM32\IMM32.DLL
C:\WINDOWS\MICROSOFT.NET\FRAMEWORK\V4.0.30319\MSCOREEI.DLL
C:\WINDOWS\SYSTEM32\VERSION.DLL
C:\WINDOWS\MICROSOFT.NET\FRAMEWORK\V4.0.30319\CLR.DLL
C:\WINDOWS\SYSTEM32\MSVCR120_CLR0400.DLL
C:\WINDOWS\ASSEMBLY\NATIVEIMAGES_V4.0.30319_32\MSCORLIB\7A53E85A72080284C5B5CD703DD282CB\MSCORLIB.NI.DLL
C:\WINDOWS\MICROSOFT.NET\FRAMEWORK\V4.0.30319\CLRJIT.DLL
C:\WINDOWS\ASSEMBLY\NATIVEIMAGES_V4.0.30319_32\SYSTEM\DD89797400D103ABFCFDD7E6C1829DD1\SYSTEM.NI.DLL
C:\WINDOWS\ASSEMBLY\NATIVEIMAGES_V4.0.30319_32\SYSTEM.CORE\95ADEBDC7528E7A8E4AE9685B1600F38\SYSTEM.CORE.NI.DLL
C:\WINDOWS\SYSTEM32\SQMAPI.DLL
C:\WINDOWS\SYSTEM32\BCRYPT.DLL
C:\WINDOWS\SYSTEM32\CLBCATQ.DLL
C:\WINDOWS\ASSEMBLY\NATIVEIMAGES_V4.0.30319_32\SYSTEM.DRAWING\BA23D79855FDF2077ADD750094BCD0F9\SYSTEM.DRAWING.NI.DLL
C:\WINDOWS\ASSEMBLY\NATIVEIMAGES_V4.0.30319_32\SYSTEM.WINDOWS.FORMS\7071684E37550C616CBA4F2C995A6B01\SYSTEM.WINDOWS.FORMS.NI.DLL
C:\WINDOWS\SYSTEM32\UXTHEME.DLL
C:\WINDOWS\SYSTEM32\MSCTF.DLL
C:\WINDOWS\WINSXS\X86_MICROSOFT.WINDOWS.GDIPLUS_6595B64144CCF1DF_1.1.16299.371_NONE_8E5FFB3502744564\GDIPLUS.DLL
C:\WINDOWS\SYSTEM32\WKSCLI.DLL
C:\WINDOWS\SYSTEM32\NETUTILS.DLL
C:\WINDOWS\ASSEMBLY\NATIVEIMAGES_V4.0.30319_32\SYSTEM.CONFIGURATION\09559970909D096BFFB1F8EB605CDDFB\SYSTEM.CONFIGURATION.NI.DLL
C:\WINDOWS\ASSEMBLY\NATIVEIMAGES_V4.0.30319_32\SYSTEM.XML\F2A690C7F588336EFBC341FEB9C9822B\SYSTEM.XML.NI.DLL
C:\WINDOWS\SYSTEM32\CRYPTSP.DLL
C:\WINDOWS\SYSTEM32\RSAENH.DLL
C:\WINDOWS\SYSTEM32\RASAPI32.DLL
C:\WINDOWS\SYSTEM32\RASMAN.DLL
C:\WINDOWS\SYSTEM32\RTUTILS.DLL
C:\WINDOWS\SYSTEM32\WS2_32.DLL
C:\WINDOWS\SYSTEM32\MSWSOCK.DLL
C:\WINDOWS\SYSTEM32\WINHTTP.DLL
C:\WINDOWS\SYSTEM32\IPHLPAPI.DLL
C:\WINDOWS\SYSTEM32\NSI.DLL
C:\WINDOWS\SYSTEM32\DHCPCSVC6.DLL
C:\WINDOWS\SYSTEM32\DHCPCSVC.DLL
C:\WINDOWS\SYSTEM32\DNSAPI.DLL
C:\WINDOWS\SYSTEM32\WINNSI.DLL
C:\PROGRAM FILES (X86)\BONJOUR\MDNSNSP.DLL
C:\WINDOWS\SYSTEM32\RASADHLP.DLL
C:\WINDOWS\SYSTEM32\FWPUCLNT.DLL
C:\WINDOWS\SYSTEM32\PSAPI.DLL
C:\WINDOWS\SYSTEM32\SECUR32.DLL
C:\WINDOWS\SYSTEM32\SCHANNEL.DLL
C:\WINDOWS\SYSTEM32\CRYPT32.DLL
C:\WINDOWS\SYSTEM32\MSASN1.DLL
C:\WINDOWS\SYSTEM32\MSKEYPROTECT.DLL
C:\WINDOWS\SYSTEM32\NCRYPT.DLL
C:\WINDOWS\SYSTEM32\NTASN1.DLL
C:\WINDOWS\SYSTEM32\NCRYPTSSLP.DLL
C:\WINDOWS\ASSEMBLY\NATIVEIMAGES_V4.0.30319_32\SYSTEM.XML.LINQ\87FBE25EF38C950240EEAFECCFFEE35F\SYSTEM.XML.LINQ.NI.DLL
C:\WINDOWS\MICROSOFT.NET\FRAMEWORK\V4.0.30319\DIASYMREADER.DLL
C:\WINDOWS\MICROSOFT.NET\FRAMEWORK\V4.0.30319\CLRCOMPRESSION.DLL
C:\WINDOWS\ASSEMBLY\NATIVEIMAGES_V4.0.30319_32\SYSTEM.NET.HTTP\74D5A9028EED15D1F703789B0ADE348C\SYSTEM.NET.HTTP.NI.DLL
C:\WINDOWS\SYSTEM32\WER.DLL
C:\WINDOWS\SYSTEM32\AEPIC.DLL
C:\WINDOWS\SYSTEM32\NTMARTA.DLL
C:\WINDOWS\SYSTEM32\SFC.DLL
C:\WINDOWS\SYSTEM32\SFC_OS.DLL
C:\WINDOWS\SYSTEM32\SETUPAPI.DLL
C:\WINDOWS\SYSTEM32\DBGHELP.DLL
C:\WINDOWS\SYSTEM32\DBGCORE.DLL
C:\PROGRAMDATA\MICROSOFT\WINDOWS\WER\TEMP
C:\PROGRAMDATA\MICROSOFT\WINDOWS\WER\REPORTQUEUE
C:\WINDOWS\REGISTRATION\R00000000000D.CLB
