^C:\USERS\CHRISTOPHER\WORK\EDUCATION\GRAPHICS\GRAPHICS\LABS\LIB\GLFW\SRC\CONTEXT.C|C:\USERS\CHRISTOPHER\WORK\EDUCATION\GRAPHICS\GRAPHICS\LABS\LIB\GLFW\SRC\EGL_CONTEXT.C|C:\USERS\CHRISTOPHER\WORK\EDUCATION\GRAPHICS\GRAPHICS\LABS\LIB\GLFW\SRC\INIT.C|C:\USERS\CHRISTOPHER\WORK\EDUCATION\GRAPHICS\GRAPHICS\LABS\LIB\GLFW\SRC\INPUT.C|C:\USERS\CHRISTOPHER\WORK\EDUCATION\GRAPHICS\GRAPHICS\LABS\LIB\GLFW\SRC\MONITOR.C|C:\USERS\CHRISTOPHER\WORK\EDUCATION\GRAPHICS\GRAPHICS\LABS\LIB\GLFW\SRC\OSMESA_CONTEXT.C|C:\USERS\CHRISTOPHER\WORK\EDUCATION\GRAPHICS\GRAPHICS\LABS\LIB\GLFW\SRC\VULKAN.C|C:\USERS\CHRISTOPHER\WORK\EDUCATION\GRAPHICS\GRAPHICS\LABS\LIB\GLFW\SRC\WGL_CONTEXT.C|C:\USERS\CHRISTOPHER\WORK\EDUCATION\GRAPHICS\GRAPHICS\LABS\LIB\GLFW\SRC\WIN32_INIT.C|C:\USERS\CHRISTOPHER\WORK\EDUCATION\GRAPHICS\GRAPHICS\LABS\LIB\GLFW\SRC\WIN32_JOYSTICK.C|C:\USERS\CHRISTOPHER\WORK\EDUCATION\GRAPHICS\GRAPHICS\LABS\LIB\GLFW\SRC\WIN32_MONITOR.C|C:\USERS\CHRISTOPHER\WORK\EDUCATION\GRAPHICS\GRAPHICS\LABS\LIB\GLFW\SRC\WIN32_THREAD.C|C:\USERS\CHRISTOPHER\WORK\EDUCATION\GRAPHICS\GRAPHICS\LABS\LIB\GLFW\SRC\WIN32_TIME.C|C:\USERS\CHRISTOPHER\WORK\EDUCATION\GRAPHICS\GRAPHICS\LABS\LIB\GLFW\SRC\WIN32_WINDOW.C|C:\USERS\CHRISTOPHER\WORK\EDUCATION\GRAPHICS\GRAPHICS\LABS\LIB\GLFW\SRC\WINDOW.C
C:\USERS\CHRISTOPHER\WORK\EDUCATION\GRAPHICS\GRAPHICS\PROGRAMS\PROGRAM1\BUILD\GLFW\SRC\GLFW.DIR\DEBUG\GLFW.PDB
C:\USERS\CHRISTOPHER\WORK\EDUCATION\GRAPHICS\GRAPHICS\PROGRAMS\PROGRAM1\BUILD\GLFW\SRC\GLFW.DIR\DEBUG\OSMESA_CONTEXT.OBJ
C:\USERS\CHRISTOPHER\WORK\EDUCATION\GRAPHICS\GRAPHICS\PROGRAMS\PROGRAM1\BUILD\GLFW\SRC\GLFW.DIR\DEBUG\EGL_CONTEXT.OBJ
C:\USERS\CHRISTOPHER\WORK\EDUCATION\GRAPHICS\GRAPHICS\PROGRAMS\PROGRAM1\BUILD\GLFW\SRC\GLFW.DIR\DEBUG\WGL_CONTEXT.OBJ
C:\USERS\CHRISTOPHER\WORK\EDUCATION\GRAPHICS\GRAPHICS\PROGRAMS\PROGRAM1\BUILD\GLFW\SRC\GLFW.DIR\DEBUG\WIN32_WINDOW.OBJ
C:\USERS\CHRISTOPHER\WORK\EDUCATION\GRAPHICS\GRAPHICS\PROGRAMS\PROGRAM1\BUILD\GLFW\SRC\GLFW.DIR\DEBUG\WIN32_THREAD.OBJ
C:\USERS\CHRISTOPHER\WORK\EDUCATION\GRAPHICS\GRAPHICS\PROGRAMS\PROGRAM1\BUILD\GLFW\SRC\GLFW.DIR\DEBUG\WIN32_TIME.OBJ
C:\USERS\CHRISTOPHER\WORK\EDUCATION\GRAPHICS\GRAPHICS\PROGRAMS\PROGRAM1\BUILD\GLFW\SRC\GLFW.DIR\DEBUG\WIN32_MONITOR.OBJ
C:\USERS\CHRISTOPHER\WORK\EDUCATION\GRAPHICS\GRAPHICS\PROGRAMS\PROGRAM1\BUILD\GLFW\SRC\GLFW.DIR\DEBUG\WIN32_JOYSTICK.OBJ
C:\USERS\CHRISTOPHER\WORK\EDUCATION\GRAPHICS\GRAPHICS\PROGRAMS\PROGRAM1\BUILD\GLFW\SRC\GLFW.DIR\DEBUG\WIN32_INIT.OBJ
C:\USERS\CHRISTOPHER\WORK\EDUCATION\GRAPHICS\GRAPHICS\PROGRAMS\PROGRAM1\BUILD\GLFW\SRC\GLFW.DIR\DEBUG\WINDOW.OBJ
C:\USERS\CHRISTOPHER\WORK\EDUCATION\GRAPHICS\GRAPHICS\PROGRAMS\PROGRAM1\BUILD\GLFW\SRC\GLFW.DIR\DEBUG\VULKAN.OBJ
C:\USERS\CHRISTOPHER\WORK\EDUCATION\GRAPHICS\GRAPHICS\PROGRAMS\PROGRAM1\BUILD\GLFW\SRC\GLFW.DIR\DEBUG\MONITOR.OBJ
C:\USERS\CHRISTOPHER\WORK\EDUCATION\GRAPHICS\GRAPHICS\PROGRAMS\PROGRAM1\BUILD\GLFW\SRC\GLFW.DIR\DEBUG\INPUT.OBJ
C:\USERS\CHRISTOPHER\WORK\EDUCATION\GRAPHICS\GRAPHICS\PROGRAMS\PROGRAM1\BUILD\GLFW\SRC\GLFW.DIR\DEBUG\INIT.OBJ
C:\USERS\CHRISTOPHER\WORK\EDUCATION\GRAPHICS\GRAPHICS\PROGRAMS\PROGRAM1\BUILD\GLFW\SRC\GLFW.DIR\DEBUG\CONTEXT.OBJ
^C:\USERS\CHRISTOPHER\WORK\EDUCATION\GRAPHICS\GRAPHICS\LABS\LIB\GLFW\SRC\CONTEXT.C
C:\USERS\CHRISTOPHER\WORK\EDUCATION\GRAPHICS\GRAPHICS\PROGRAMS\PROGRAM1\BUILD\GLFW\SRC\GLFW.DIR\DEBUG\GLFW.PDB
^C:\USERS\CHRISTOPHER\WORK\EDUCATION\GRAPHICS\GRAPHICS\LABS\LIB\GLFW\SRC\INIT.C
C:\USERS\CHRISTOPHER\WORK\EDUCATION\GRAPHICS\GRAPHICS\PROGRAMS\PROGRAM1\BUILD\GLFW\SRC\GLFW.DIR\DEBUG\GLFW.PDB
^C:\USERS\CHRISTOPHER\WORK\EDUCATION\GRAPHICS\GRAPHICS\LABS\LIB\GLFW\SRC\INPUT.C
C:\USERS\CHRISTOPHER\WORK\EDUCATION\GRAPHICS\GRAPHICS\PROGRAMS\PROGRAM1\BUILD\GLFW\SRC\GLFW.DIR\DEBUG\GLFW.PDB
^C:\USERS\CHRISTOPHER\WORK\EDUCATION\GRAPHICS\GRAPHICS\LABS\LIB\GLFW\SRC\MONITOR.C
C:\USERS\CHRISTOPHER\WORK\EDUCATION\GRAPHICS\GRAPHICS\PROGRAMS\PROGRAM1\BUILD\GLFW\SRC\GLFW.DIR\DEBUG\GLFW.PDB
^C:\USERS\CHRISTOPHER\WORK\EDUCATION\GRAPHICS\GRAPHICS\LABS\LIB\GLFW\SRC\VULKAN.C
C:\USERS\CHRISTOPHER\WORK\EDUCATION\GRAPHICS\GRAPHICS\PROGRAMS\PROGRAM1\BUILD\GLFW\SRC\GLFW.DIR\DEBUG\GLFW.PDB
^C:\USERS\CHRISTOPHER\WORK\EDUCATION\GRAPHICS\GRAPHICS\LABS\LIB\GLFW\SRC\WINDOW.C
C:\USERS\CHRISTOPHER\WORK\EDUCATION\GRAPHICS\GRAPHICS\PROGRAMS\PROGRAM1\BUILD\GLFW\SRC\GLFW.DIR\DEBUG\GLFW.PDB
^C:\USERS\CHRISTOPHER\WORK\EDUCATION\GRAPHICS\GRAPHICS\LABS\LIB\GLFW\SRC\WIN32_INIT.C
C:\USERS\CHRISTOPHER\WORK\EDUCATION\GRAPHICS\GRAPHICS\PROGRAMS\PROGRAM1\BUILD\GLFW\SRC\GLFW.DIR\DEBUG\GLFW.PDB
^C:\USERS\CHRISTOPHER\WORK\EDUCATION\GRAPHICS\GRAPHICS\LABS\LIB\GLFW\SRC\WIN32_JOYSTICK.C
C:\USERS\CHRISTOPHER\WORK\EDUCATION\GRAPHICS\GRAPHICS\PROGRAMS\PROGRAM1\BUILD\GLFW\SRC\GLFW.DIR\DEBUG\GLFW.PDB
^C:\USERS\CHRISTOPHER\WORK\EDUCATION\GRAPHICS\GRAPHICS\LABS\LIB\GLFW\SRC\WIN32_MONITOR.C
C:\USERS\CHRISTOPHER\WORK\EDUCATION\GRAPHICS\GRAPHICS\PROGRAMS\PROGRAM1\BUILD\GLFW\SRC\GLFW.DIR\DEBUG\GLFW.PDB
^C:\USERS\CHRISTOPHER\WORK\EDUCATION\GRAPHICS\GRAPHICS\LABS\LIB\GLFW\SRC\WIN32_TIME.C
C:\USERS\CHRISTOPHER\WORK\EDUCATION\GRAPHICS\GRAPHICS\PROGRAMS\PROGRAM1\BUILD\GLFW\SRC\GLFW.DIR\DEBUG\GLFW.PDB
^C:\USERS\CHRISTOPHER\WORK\EDUCATION\GRAPHICS\GRAPHICS\LABS\LIB\GLFW\SRC\WIN32_THREAD.C
C:\USERS\CHRISTOPHER\WORK\EDUCATION\GRAPHICS\GRAPHICS\PROGRAMS\PROGRAM1\BUILD\GLFW\SRC\GLFW.DIR\DEBUG\GLFW.PDB
^C:\USERS\CHRISTOPHER\WORK\EDUCATION\GRAPHICS\GRAPHICS\LABS\LIB\GLFW\SRC\WIN32_WINDOW.C
C:\USERS\CHRISTOPHER\WORK\EDUCATION\GRAPHICS\GRAPHICS\PROGRAMS\PROGRAM1\BUILD\GLFW\SRC\GLFW.DIR\DEBUG\GLFW.PDB
^C:\USERS\CHRISTOPHER\WORK\EDUCATION\GRAPHICS\GRAPHICS\LABS\LIB\GLFW\SRC\WGL_CONTEXT.C
C:\USERS\CHRISTOPHER\WORK\EDUCATION\GRAPHICS\GRAPHICS\PROGRAMS\PROGRAM1\BUILD\GLFW\SRC\GLFW.DIR\DEBUG\GLFW.PDB
^C:\USERS\CHRISTOPHER\WORK\EDUCATION\GRAPHICS\GRAPHICS\LABS\LIB\GLFW\SRC\EGL_CONTEXT.C
C:\USERS\CHRISTOPHER\WORK\EDUCATION\GRAPHICS\GRAPHICS\PROGRAMS\PROGRAM1\BUILD\GLFW\SRC\GLFW.DIR\DEBUG\GLFW.PDB
^C:\USERS\CHRISTOPHER\WORK\EDUCATION\GRAPHICS\GRAPHICS\LABS\LIB\GLFW\SRC\OSMESA_CONTEXT.C
C:\USERS\CHRISTOPHER\WORK\EDUCATION\GRAPHICS\GRAPHICS\PROGRAMS\PROGRAM1\BUILD\GLFW\SRC\GLFW.DIR\DEBUG\GLFW.PDB
