^C:\USERS\CHRISTOPHER\WORK\EDUCATION\GRAPHICS\GRAPHICS\LABS\LIB\GLFW\SRC\CONTEXT.C
/c /IC:\USERS\CHRISTOPHER\WORK\EDUCATION\GRAPHICS\GRAPHICS\LABS\LIB\GLFW\INCLUDE /IC:\USERS\CHRISTOPHER\WORK\EDUCATION\GRAPHICS\GRAPHICS\LABS\LIB\GLFW\SRC /IC:\USERS\CHRISTOPHER\WORK\EDUCATION\GRAPHICS\GRAPHICS\PROGRAMS\PROGRAM2\BUILD\GLFW\SRC /Zi /nologo /W3 /WX- /Od /Ob0 /Oy- /D WIN32 /D _WINDOWS /D _GLFW_USE_CONFIG_H /D _CRT_SECURE_NO_WARNINGS /D "CMAKE_INTDIR=\"Debug\"" /D _MBCS /Gm- /RTC1 /MDd /GS /fp:precise /Zc:wchar_t /Zc:forScope /Zc:inline /Fo"GLFW.DIR\DEBUG\\" /Fd"GLFW.DIR\DEBUG\GLFW.PDB" /Gd /TC /analyze- C:\USERS\CHRISTOPHER\WORK\EDUCATION\GRAPHICS\GRAPHICS\LABS\LIB\GLFW\SRC\CONTEXT.C
^C:\USERS\CHRISTOPHER\WORK\EDUCATION\GRAPHICS\GRAPHICS\LABS\LIB\GLFW\SRC\INIT.C
/c /IC:\USERS\CHRISTOPHER\WORK\EDUCATION\GRAPHICS\GRAPHICS\LABS\LIB\GLFW\INCLUDE /IC:\USERS\CHRISTOPHER\WORK\EDUCATION\GRAPHICS\GRAPHICS\LABS\LIB\GLFW\SRC /IC:\USERS\CHRISTOPHER\WORK\EDUCATION\GRAPHICS\GRAPHICS\PROGRAMS\PROGRAM2\BUILD\GLFW\SRC /Zi /nologo /W3 /WX- /Od /Ob0 /Oy- /D WIN32 /D _WINDOWS /D _GLFW_USE_CONFIG_H /D _CRT_SECURE_NO_WARNINGS /D "CMAKE_INTDIR=\"Debug\"" /D _MBCS /Gm- /RTC1 /MDd /GS /fp:precise /Zc:wchar_t /Zc:forScope /Zc:inline /Fo"GLFW.DIR\DEBUG\\" /Fd"GLFW.DIR\DEBUG\GLFW.PDB" /Gd /TC /analyze- C:\USERS\CHRISTOPHER\WORK\EDUCATION\GRAPHICS\GRAPHICS\LABS\LIB\GLFW\SRC\INIT.C
^C:\USERS\CHRISTOPHER\WORK\EDUCATION\GRAPHICS\GRAPHICS\LABS\LIB\GLFW\SRC\INPUT.C
/c /IC:\USERS\CHRISTOPHER\WORK\EDUCATION\GRAPHICS\GRAPHICS\LABS\LIB\GLFW\INCLUDE /IC:\USERS\CHRISTOPHER\WORK\EDUCATION\GRAPHICS\GRAPHICS\LABS\LIB\GLFW\SRC /IC:\USERS\CHRISTOPHER\WORK\EDUCATION\GRAPHICS\GRAPHICS\PROGRAMS\PROGRAM2\BUILD\GLFW\SRC /Zi /nologo /W3 /WX- /Od /Ob0 /Oy- /D WIN32 /D _WINDOWS /D _GLFW_USE_CONFIG_H /D _CRT_SECURE_NO_WARNINGS /D "CMAKE_INTDIR=\"Debug\"" /D _MBCS /Gm- /RTC1 /MDd /GS /fp:precise /Zc:wchar_t /Zc:forScope /Zc:inline /Fo"GLFW.DIR\DEBUG\\" /Fd"GLFW.DIR\DEBUG\GLFW.PDB" /Gd /TC /analyze- C:\USERS\CHRISTOPHER\WORK\EDUCATION\GRAPHICS\GRAPHICS\LABS\LIB\GLFW\SRC\INPUT.C
^C:\USERS\CHRISTOPHER\WORK\EDUCATION\GRAPHICS\GRAPHICS\LABS\LIB\GLFW\SRC\MONITOR.C
/c /IC:\USERS\CHRISTOPHER\WORK\EDUCATION\GRAPHICS\GRAPHICS\LABS\LIB\GLFW\INCLUDE /IC:\USERS\CHRISTOPHER\WORK\EDUCATION\GRAPHICS\GRAPHICS\LABS\LIB\GLFW\SRC /IC:\USERS\CHRISTOPHER\WORK\EDUCATION\GRAPHICS\GRAPHICS\PROGRAMS\PROGRAM2\BUILD\GLFW\SRC /Zi /nologo /W3 /WX- /Od /Ob0 /Oy- /D WIN32 /D _WINDOWS /D _GLFW_USE_CONFIG_H /D _CRT_SECURE_NO_WARNINGS /D "CMAKE_INTDIR=\"Debug\"" /D _MBCS /Gm- /RTC1 /MDd /GS /fp:precise /Zc:wchar_t /Zc:forScope /Zc:inline /Fo"GLFW.DIR\DEBUG\\" /Fd"GLFW.DIR\DEBUG\GLFW.PDB" /Gd /TC /analyze- C:\USERS\CHRISTOPHER\WORK\EDUCATION\GRAPHICS\GRAPHICS\LABS\LIB\GLFW\SRC\MONITOR.C
^C:\USERS\CHRISTOPHER\WORK\EDUCATION\GRAPHICS\GRAPHICS\LABS\LIB\GLFW\SRC\VULKAN.C
/c /IC:\USERS\CHRISTOPHER\WORK\EDUCATION\GRAPHICS\GRAPHICS\LABS\LIB\GLFW\INCLUDE /IC:\USERS\CHRISTOPHER\WORK\EDUCATION\GRAPHICS\GRAPHICS\LABS\LIB\GLFW\SRC /IC:\USERS\CHRISTOPHER\WORK\EDUCATION\GRAPHICS\GRAPHICS\PROGRAMS\PROGRAM2\BUILD\GLFW\SRC /Zi /nologo /W3 /WX- /Od /Ob0 /Oy- /D WIN32 /D _WINDOWS /D _GLFW_USE_CONFIG_H /D _CRT_SECURE_NO_WARNINGS /D "CMAKE_INTDIR=\"Debug\"" /D _MBCS /Gm- /RTC1 /MDd /GS /fp:precise /Zc:wchar_t /Zc:forScope /Zc:inline /Fo"GLFW.DIR\DEBUG\\" /Fd"GLFW.DIR\DEBUG\GLFW.PDB" /Gd /TC /analyze- C:\USERS\CHRISTOPHER\WORK\EDUCATION\GRAPHICS\GRAPHICS\LABS\LIB\GLFW\SRC\VULKAN.C
^C:\USERS\CHRISTOPHER\WORK\EDUCATION\GRAPHICS\GRAPHICS\LABS\LIB\GLFW\SRC\WINDOW.C
/c /IC:\USERS\CHRISTOPHER\WORK\EDUCATION\GRAPHICS\GRAPHICS\LABS\LIB\GLFW\INCLUDE /IC:\USERS\CHRISTOPHER\WORK\EDUCATION\GRAPHICS\GRAPHICS\LABS\LIB\GLFW\SRC /IC:\USERS\CHRISTOPHER\WORK\EDUCATION\GRAPHICS\GRAPHICS\PROGRAMS\PROGRAM2\BUILD\GLFW\SRC /Zi /nologo /W3 /WX- /Od /Ob0 /Oy- /D WIN32 /D _WINDOWS /D _GLFW_USE_CONFIG_H /D _CRT_SECURE_NO_WARNINGS /D "CMAKE_INTDIR=\"Debug\"" /D _MBCS /Gm- /RTC1 /MDd /GS /fp:precise /Zc:wchar_t /Zc:forScope /Zc:inline /Fo"GLFW.DIR\DEBUG\\" /Fd"GLFW.DIR\DEBUG\GLFW.PDB" /Gd /TC /analyze- C:\USERS\CHRISTOPHER\WORK\EDUCATION\GRAPHICS\GRAPHICS\LABS\LIB\GLFW\SRC\WINDOW.C
^C:\USERS\CHRISTOPHER\WORK\EDUCATION\GRAPHICS\GRAPHICS\LABS\LIB\GLFW\SRC\WIN32_INIT.C
/c /IC:\USERS\CHRISTOPHER\WORK\EDUCATION\GRAPHICS\GRAPHICS\LABS\LIB\GLFW\INCLUDE /IC:\USERS\CHRISTOPHER\WORK\EDUCATION\GRAPHICS\GRAPHICS\LABS\LIB\GLFW\SRC /IC:\USERS\CHRISTOPHER\WORK\EDUCATION\GRAPHICS\GRAPHICS\PROGRAMS\PROGRAM2\BUILD\GLFW\SRC /Zi /nologo /W3 /WX- /Od /Ob0 /Oy- /D WIN32 /D _WINDOWS /D _GLFW_USE_CONFIG_H /D _CRT_SECURE_NO_WARNINGS /D "CMAKE_INTDIR=\"Debug\"" /D _MBCS /Gm- /RTC1 /MDd /GS /fp:precise /Zc:wchar_t /Zc:forScope /Zc:inline /Fo"GLFW.DIR\DEBUG\\" /Fd"GLFW.DIR\DEBUG\GLFW.PDB" /Gd /TC /analyze- C:\USERS\CHRISTOPHER\WORK\EDUCATION\GRAPHICS\GRAPHICS\LABS\LIB\GLFW\SRC\WIN32_INIT.C
^C:\USERS\CHRISTOPHER\WORK\EDUCATION\GRAPHICS\GRAPHICS\LABS\LIB\GLFW\SRC\WIN32_JOYSTICK.C
/c /IC:\USERS\CHRISTOPHER\WORK\EDUCATION\GRAPHICS\GRAPHICS\LABS\LIB\GLFW\INCLUDE /IC:\USERS\CHRISTOPHER\WORK\EDUCATION\GRAPHICS\GRAPHICS\LABS\LIB\GLFW\SRC /IC:\USERS\CHRISTOPHER\WORK\EDUCATION\GRAPHICS\GRAPHICS\PROGRAMS\PROGRAM2\BUILD\GLFW\SRC /Zi /nologo /W3 /WX- /Od /Ob0 /Oy- /D WIN32 /D _WINDOWS /D _GLFW_USE_CONFIG_H /D _CRT_SECURE_NO_WARNINGS /D "CMAKE_INTDIR=\"Debug\"" /D _MBCS /Gm- /RTC1 /MDd /GS /fp:precise /Zc:wchar_t /Zc:forScope /Zc:inline /Fo"GLFW.DIR\DEBUG\\" /Fd"GLFW.DIR\DEBUG\GLFW.PDB" /Gd /TC /analyze- C:\USERS\CHRISTOPHER\WORK\EDUCATION\GRAPHICS\GRAPHICS\LABS\LIB\GLFW\SRC\WIN32_JOYSTICK.C
^C:\USERS\CHRISTOPHER\WORK\EDUCATION\GRAPHICS\GRAPHICS\LABS\LIB\GLFW\SRC\WIN32_MONITOR.C
/c /IC:\USERS\CHRISTOPHER\WORK\EDUCATION\GRAPHICS\GRAPHICS\LABS\LIB\GLFW\INCLUDE /IC:\USERS\CHRISTOPHER\WORK\EDUCATION\GRAPHICS\GRAPHICS\LABS\LIB\GLFW\SRC /IC:\USERS\CHRISTOPHER\WORK\EDUCATION\GRAPHICS\GRAPHICS\PROGRAMS\PROGRAM2\BUILD\GLFW\SRC /Zi /nologo /W3 /WX- /Od /Ob0 /Oy- /D WIN32 /D _WINDOWS /D _GLFW_USE_CONFIG_H /D _CRT_SECURE_NO_WARNINGS /D "CMAKE_INTDIR=\"Debug\"" /D _MBCS /Gm- /RTC1 /MDd /GS /fp:precise /Zc:wchar_t /Zc:forScope /Zc:inline /Fo"GLFW.DIR\DEBUG\\" /Fd"GLFW.DIR\DEBUG\GLFW.PDB" /Gd /TC /analyze- C:\USERS\CHRISTOPHER\WORK\EDUCATION\GRAPHICS\GRAPHICS\LABS\LIB\GLFW\SRC\WIN32_MONITOR.C
^C:\USERS\CHRISTOPHER\WORK\EDUCATION\GRAPHICS\GRAPHICS\LABS\LIB\GLFW\SRC\WIN32_TIME.C
/c /IC:\USERS\CHRISTOPHER\WORK\EDUCATION\GRAPHICS\GRAPHICS\LABS\LIB\GLFW\INCLUDE /IC:\USERS\CHRISTOPHER\WORK\EDUCATION\GRAPHICS\GRAPHICS\LABS\LIB\GLFW\SRC /IC:\USERS\CHRISTOPHER\WORK\EDUCATION\GRAPHICS\GRAPHICS\PROGRAMS\PROGRAM2\BUILD\GLFW\SRC /Zi /nologo /W3 /WX- /Od /Ob0 /Oy- /D WIN32 /D _WINDOWS /D _GLFW_USE_CONFIG_H /D _CRT_SECURE_NO_WARNINGS /D "CMAKE_INTDIR=\"Debug\"" /D _MBCS /Gm- /RTC1 /MDd /GS /fp:precise /Zc:wchar_t /Zc:forScope /Zc:inline /Fo"GLFW.DIR\DEBUG\\" /Fd"GLFW.DIR\DEBUG\GLFW.PDB" /Gd /TC /analyze- C:\USERS\CHRISTOPHER\WORK\EDUCATION\GRAPHICS\GRAPHICS\LABS\LIB\GLFW\SRC\WIN32_TIME.C
^C:\USERS\CHRISTOPHER\WORK\EDUCATION\GRAPHICS\GRAPHICS\LABS\LIB\GLFW\SRC\WIN32_THREAD.C
/c /IC:\USERS\CHRISTOPHER\WORK\EDUCATION\GRAPHICS\GRAPHICS\LABS\LIB\GLFW\INCLUDE /IC:\USERS\CHRISTOPHER\WORK\EDUCATION\GRAPHICS\GRAPHICS\LABS\LIB\GLFW\SRC /IC:\USERS\CHRISTOPHER\WORK\EDUCATION\GRAPHICS\GRAPHICS\PROGRAMS\PROGRAM2\BUILD\GLFW\SRC /Zi /nologo /W3 /WX- /Od /Ob0 /Oy- /D WIN32 /D _WINDOWS /D _GLFW_USE_CONFIG_H /D _CRT_SECURE_NO_WARNINGS /D "CMAKE_INTDIR=\"Debug\"" /D _MBCS /Gm- /RTC1 /MDd /GS /fp:precise /Zc:wchar_t /Zc:forScope /Zc:inline /Fo"GLFW.DIR\DEBUG\\" /Fd"GLFW.DIR\DEBUG\GLFW.PDB" /Gd /TC /analyze- C:\USERS\CHRISTOPHER\WORK\EDUCATION\GRAPHICS\GRAPHICS\LABS\LIB\GLFW\SRC\WIN32_THREAD.C
^C:\USERS\CHRISTOPHER\WORK\EDUCATION\GRAPHICS\GRAPHICS\LABS\LIB\GLFW\SRC\WIN32_WINDOW.C
/c /IC:\USERS\CHRISTOPHER\WORK\EDUCATION\GRAPHICS\GRAPHICS\LABS\LIB\GLFW\INCLUDE /IC:\USERS\CHRISTOPHER\WORK\EDUCATION\GRAPHICS\GRAPHICS\LABS\LIB\GLFW\SRC /IC:\USERS\CHRISTOPHER\WORK\EDUCATION\GRAPHICS\GRAPHICS\PROGRAMS\PROGRAM2\BUILD\GLFW\SRC /Zi /nologo /W3 /WX- /Od /Ob0 /Oy- /D WIN32 /D _WINDOWS /D _GLFW_USE_CONFIG_H /D _CRT_SECURE_NO_WARNINGS /D "CMAKE_INTDIR=\"Debug\"" /D _MBCS /Gm- /RTC1 /MDd /GS /fp:precise /Zc:wchar_t /Zc:forScope /Zc:inline /Fo"GLFW.DIR\DEBUG\\" /Fd"GLFW.DIR\DEBUG\GLFW.PDB" /Gd /TC /analyze- C:\USERS\CHRISTOPHER\WORK\EDUCATION\GRAPHICS\GRAPHICS\LABS\LIB\GLFW\SRC\WIN32_WINDOW.C
^C:\USERS\CHRISTOPHER\WORK\EDUCATION\GRAPHICS\GRAPHICS\LABS\LIB\GLFW\SRC\WGL_CONTEXT.C
/c /IC:\USERS\CHRISTOPHER\WORK\EDUCATION\GRAPHICS\GRAPHICS\LABS\LIB\GLFW\INCLUDE /IC:\USERS\CHRISTOPHER\WORK\EDUCATION\GRAPHICS\GRAPHICS\LABS\LIB\GLFW\SRC /IC:\USERS\CHRISTOPHER\WORK\EDUCATION\GRAPHICS\GRAPHICS\PROGRAMS\PROGRAM2\BUILD\GLFW\SRC /Zi /nologo /W3 /WX- /Od /Ob0 /Oy- /D WIN32 /D _WINDOWS /D _GLFW_USE_CONFIG_H /D _CRT_SECURE_NO_WARNINGS /D "CMAKE_INTDIR=\"Debug\"" /D _MBCS /Gm- /RTC1 /MDd /GS /fp:precise /Zc:wchar_t /Zc:forScope /Zc:inline /Fo"GLFW.DIR\DEBUG\\" /Fd"GLFW.DIR\DEBUG\GLFW.PDB" /Gd /TC /analyze- C:\USERS\CHRISTOPHER\WORK\EDUCATION\GRAPHICS\GRAPHICS\LABS\LIB\GLFW\SRC\WGL_CONTEXT.C
^C:\USERS\CHRISTOPHER\WORK\EDUCATION\GRAPHICS\GRAPHICS\LABS\LIB\GLFW\SRC\EGL_CONTEXT.C
/c /IC:\USERS\CHRISTOPHER\WORK\EDUCATION\GRAPHICS\GRAPHICS\LABS\LIB\GLFW\INCLUDE /IC:\USERS\CHRISTOPHER\WORK\EDUCATION\GRAPHICS\GRAPHICS\LABS\LIB\GLFW\SRC /IC:\USERS\CHRISTOPHER\WORK\EDUCATION\GRAPHICS\GRAPHICS\PROGRAMS\PROGRAM2\BUILD\GLFW\SRC /Zi /nologo /W3 /WX- /Od /Ob0 /Oy- /D WIN32 /D _WINDOWS /D _GLFW_USE_CONFIG_H /D _CRT_SECURE_NO_WARNINGS /D "CMAKE_INTDIR=\"Debug\"" /D _MBCS /Gm- /RTC1 /MDd /GS /fp:precise /Zc:wchar_t /Zc:forScope /Zc:inline /Fo"GLFW.DIR\DEBUG\\" /Fd"GLFW.DIR\DEBUG\GLFW.PDB" /Gd /TC /analyze- C:\USERS\CHRISTOPHER\WORK\EDUCATION\GRAPHICS\GRAPHICS\LABS\LIB\GLFW\SRC\EGL_CONTEXT.C
^C:\USERS\CHRISTOPHER\WORK\EDUCATION\GRAPHICS\GRAPHICS\LABS\LIB\GLFW\SRC\OSMESA_CONTEXT.C
/c /IC:\USERS\CHRISTOPHER\WORK\EDUCATION\GRAPHICS\GRAPHICS\LABS\LIB\GLFW\INCLUDE /IC:\USERS\CHRISTOPHER\WORK\EDUCATION\GRAPHICS\GRAPHICS\LABS\LIB\GLFW\SRC /IC:\USERS\CHRISTOPHER\WORK\EDUCATION\GRAPHICS\GRAPHICS\PROGRAMS\PROGRAM2\BUILD\GLFW\SRC /Zi /nologo /W3 /WX- /Od /Ob0 /Oy- /D WIN32 /D _WINDOWS /D _GLFW_USE_CONFIG_H /D _CRT_SECURE_NO_WARNINGS /D "CMAKE_INTDIR=\"Debug\"" /D _MBCS /Gm- /RTC1 /MDd /GS /fp:precise /Zc:wchar_t /Zc:forScope /Zc:inline /Fo"GLFW.DIR\DEBUG\\" /Fd"GLFW.DIR\DEBUG\GLFW.PDB" /Gd /TC /analyze- C:\USERS\CHRISTOPHER\WORK\EDUCATION\GRAPHICS\GRAPHICS\LABS\LIB\GLFW\SRC\OSMESA_CONTEXT.C
