^C:\USERS\CHRISTOPHER\WORK\EDUCATION\GRAPHICS\GRAPHICS\LABS\LAB1\BUILD\LAB1.CPP|C:\USERS\CHRISTOPHER\WORK\EDUCATION\GRAPHICS\GRAPHICS\LABS\LAB1\MAIN.CPP
C:\USERS\CHRISTOPHER\WORK\EDUCATION\GRAPHICS\GRAPHICS\LABS\LAB1\BUILD\LAB1.DIR\DEBUG\VC140.PDB
C:\USERS\CHRISTOPHER\WORK\EDUCATION\GRAPHICS\GRAPHICS\LABS\LAB1\BUILD\LAB1.DIR\DEBUG\LAB1.OBJ
C:\USERS\CHRISTOPHER\WORK\EDUCATION\GRAPHICS\GRAPHICS\LABS\LAB1\BUILD\LAB1.DIR\DEBUG\MAIN.OBJ
^C:\USERS\CHRISTOPHER\WORK\EDUCATION\GRAPHICS\GRAPHICS\LABS\LAB1\BUILD\LAB1.CPP
C:\USERS\CHRISTOPHER\WORK\EDUCATION\GRAPHICS\GRAPHICS\LABS\LAB1\BUILD\LAB1.DIR\DEBUG\VC140.PDB
