^C:\USERS\CHRISTOPHER\WORK\EDUCATION\GRAPHICS\GRAPHICS\PROGRAMS\PROGRAM3\BUILD\PROGRAM3.DIR\DEBUG\GLAD.OBJ|C:\USERS\CHRISTOPHER\WORK\EDUCATION\GRAPHICS\GRAPHICS\PROGRAMS\PROGRAM3\BUILD\PROGRAM3.DIR\DEBUG\MAIN.OBJ
C:\WINDOWS\GLOBALIZATION\SORTING\SORTDEFAULT.NLS
C:\USERS\CHRISTOPHER\WORK\EDUCATION\GRAPHICS\GRAPHICS\PROGRAMS\PROGRAM3\BUILD\GLFW\SRC\DEBUG\GLFW3.LIB
C:\PROGRAM FILES (X86)\WINDOWS KITS\8.1\LIB\WINV6.3\UM\X86\KERNEL32.LIB
C:\PROGRAM FILES (X86)\WINDOWS KITS\8.1\LIB\WINV6.3\UM\X86\USER32.LIB
C:\PROGRAM FILES (X86)\WINDOWS KITS\8.1\LIB\WINV6.3\UM\X86\GDI32.LIB
C:\PROGRAM FILES (X86)\WINDOWS KITS\8.1\LIB\WINV6.3\UM\X86\WINSPOOL.LIB
C:\PROGRAM FILES (X86)\WINDOWS KITS\8.1\LIB\WINV6.3\UM\X86\SHELL32.LIB
C:\PROGRAM FILES (X86)\WINDOWS KITS\8.1\LIB\WINV6.3\UM\X86\OLE32.LIB
C:\PROGRAM FILES (X86)\WINDOWS KITS\8.1\LIB\WINV6.3\UM\X86\OLEAUT32.LIB
C:\PROGRAM FILES (X86)\WINDOWS KITS\8.1\LIB\WINV6.3\UM\X86\UUID.LIB
C:\PROGRAM FILES (X86)\WINDOWS KITS\8.1\LIB\WINV6.3\UM\X86\COMDLG32.LIB
C:\PROGRAM FILES (X86)\WINDOWS KITS\8.1\LIB\WINV6.3\UM\X86\ADVAPI32.LIB
C:\USERS\CHRISTOPHER\WORK\EDUCATION\GRAPHICS\GRAPHICS\PROGRAMS\PROGRAM3\BUILD\PROGRAM3.DIR\DEBUG\MAIN.OBJ
C:\USERS\CHRISTOPHER\WORK\EDUCATION\GRAPHICS\GRAPHICS\PROGRAMS\PROGRAM3\BUILD\PROGRAM3.DIR\DEBUG\GLAD.OBJ
C:\WINDOWS\SYSTEM32\TZRES.DLL
C:\PROGRAM FILES (X86)\MICROSOFT VISUAL STUDIO 14.0\VC\LIB\MSVCPRTD.LIB
C:\PROGRAM FILES (X86)\MICROSOFT VISUAL STUDIO 14.0\VC\LIB\MSVCRTD.LIB
C:\PROGRAM FILES (X86)\MICROSOFT VISUAL STUDIO 14.0\VC\LIB\OLDNAMES.LIB
C:\PROGRAM FILES (X86)\MICROSOFT VISUAL STUDIO 14.0\VC\LIB\VCRUNTIMED.LIB
C:\PROGRAM FILES (X86)\WINDOWS KITS\10\LIB\10.0.10240.0\UCRT\X86\UCRTD.LIB
