^C:\USERS\CHRISTOPHER\WORK\EDUCATION\GRAPHICS\GRAPHICS\PROGRAMS\PROGRAM3\BUILD\CMAKEFILES\ABDAAA9121EE48099E10AC6D4FAB902D\GENERATE.STAMP.RULE
C:\USERS\CHRISTOPHER\WORK\EDUCATION\GRAPHICS\GRAPHICS\LABS\LIB\GLFW\CMAKE\MODULES\FINDVULKAN.CMAKE
C:\USERS\CHRISTOPHER\WORK\EDUCATION\GRAPHICS\GRAPHICS\LABS\LIB\GLFW\CMAKELISTS.TXT
C:\USERS\CHRISTOPHER\WORK\EDUCATION\GRAPHICS\GRAPHICS\LABS\LIB\GLFW\CMAKE_UNINSTALL.CMAKE.IN
C:\USERS\CHRISTOPHER\WORK\EDUCATION\GRAPHICS\GRAPHICS\LABS\LIB\GLFW\SRC\CMAKELISTS.TXT
C:\USERS\CHRISTOPHER\WORK\EDUCATION\GRAPHICS\GRAPHICS\LABS\LIB\GLFW\SRC\GLFW3.PC.IN
C:\USERS\CHRISTOPHER\WORK\EDUCATION\GRAPHICS\GRAPHICS\LABS\LIB\GLFW\SRC\GLFW3CONFIG.CMAKE.IN
C:\USERS\CHRISTOPHER\WORK\EDUCATION\GRAPHICS\GRAPHICS\LABS\LIB\GLFW\SRC\GLFW_CONFIG.H.IN
C:\USERS\CHRISTOPHER\WORK\EDUCATION\GRAPHICS\GRAPHICS\PROGRAMS\PROGRAM3\CMAKELISTS.TXT
C:\USERS\CHRISTOPHER\WORK\EDUCATION\GRAPHICS\GRAPHICS\PROGRAMS\PROGRAM3\BUILD\CMAKEFILES\3.10.1\CMAKECCOMPILER.CMAKE
C:\USERS\CHRISTOPHER\WORK\EDUCATION\GRAPHICS\GRAPHICS\PROGRAMS\PROGRAM3\BUILD\CMAKEFILES\3.10.1\CMAKECXXCOMPILER.CMAKE
C:\USERS\CHRISTOPHER\WORK\EDUCATION\GRAPHICS\GRAPHICS\PROGRAMS\PROGRAM3\BUILD\CMAKEFILES\3.10.1\CMAKERCCOMPILER.CMAKE
C:\USERS\CHRISTOPHER\WORK\EDUCATION\GRAPHICS\GRAPHICS\PROGRAMS\PROGRAM3\BUILD\CMAKEFILES\3.10.1\CMAKESYSTEM.CMAKE
C:\USERS\CHRISTOPHER\WORK\EDUCATION\GRAPHICS\GRAPHICS\PROGRAMS\PROGRAM3\BUILD\CMAKEFILES\FEATURE_TESTS.CXX
C:\USERS\CHRISTOPHER\WORK\SPRING\CMAKE\SHARE\CMAKE-3.10\MODULES\BASICCONFIGVERSION-SAMEMAJORVERSION.CMAKE.IN
C:\USERS\CHRISTOPHER\WORK\SPRING\CMAKE\SHARE\CMAKE-3.10\MODULES\CMAKECCOMPILER.CMAKE.IN
C:\USERS\CHRISTOPHER\WORK\SPRING\CMAKE\SHARE\CMAKE-3.10\MODULES\CMAKECCOMPILERABI.C
C:\USERS\CHRISTOPHER\WORK\SPRING\CMAKE\SHARE\CMAKE-3.10\MODULES\CMAKECINFORMATION.CMAKE
C:\USERS\CHRISTOPHER\WORK\SPRING\CMAKE\SHARE\CMAKE-3.10\MODULES\CMAKECXXCOMPILER.CMAKE.IN
C:\USERS\CHRISTOPHER\WORK\SPRING\CMAKE\SHARE\CMAKE-3.10\MODULES\CMAKECXXCOMPILERABI.CPP
C:\USERS\CHRISTOPHER\WORK\SPRING\CMAKE\SHARE\CMAKE-3.10\MODULES\CMAKECXXINFORMATION.CMAKE
C:\USERS\CHRISTOPHER\WORK\SPRING\CMAKE\SHARE\CMAKE-3.10\MODULES\CMAKECOMMONLANGUAGEINCLUDE.CMAKE
C:\USERS\CHRISTOPHER\WORK\SPRING\CMAKE\SHARE\CMAKE-3.10\MODULES\CMAKECOMPILERIDDETECTION.CMAKE
C:\USERS\CHRISTOPHER\WORK\SPRING\CMAKE\SHARE\CMAKE-3.10\MODULES\CMAKEDETERMINECCOMPILER.CMAKE
C:\USERS\CHRISTOPHER\WORK\SPRING\CMAKE\SHARE\CMAKE-3.10\MODULES\CMAKEDETERMINECXXCOMPILER.CMAKE
C:\USERS\CHRISTOPHER\WORK\SPRING\CMAKE\SHARE\CMAKE-3.10\MODULES\CMAKEDETERMINECOMPILEFEATURES.CMAKE
C:\USERS\CHRISTOPHER\WORK\SPRING\CMAKE\SHARE\CMAKE-3.10\MODULES\CMAKEDETERMINECOMPILER.CMAKE
C:\USERS\CHRISTOPHER\WORK\SPRING\CMAKE\SHARE\CMAKE-3.10\MODULES\CMAKEDETERMINECOMPILERABI.CMAKE
C:\USERS\CHRISTOPHER\WORK\SPRING\CMAKE\SHARE\CMAKE-3.10\MODULES\CMAKEDETERMINECOMPILERID.CMAKE
C:\USERS\CHRISTOPHER\WORK\SPRING\CMAKE\SHARE\CMAKE-3.10\MODULES\CMAKEDETERMINERCCOMPILER.CMAKE
C:\USERS\CHRISTOPHER\WORK\SPRING\CMAKE\SHARE\CMAKE-3.10\MODULES\CMAKEDETERMINESYSTEM.CMAKE
C:\USERS\CHRISTOPHER\WORK\SPRING\CMAKE\SHARE\CMAKE-3.10\MODULES\CMAKEFINDBINUTILS.CMAKE
C:\USERS\CHRISTOPHER\WORK\SPRING\CMAKE\SHARE\CMAKE-3.10\MODULES\CMAKEGENERICSYSTEM.CMAKE
C:\USERS\CHRISTOPHER\WORK\SPRING\CMAKE\SHARE\CMAKE-3.10\MODULES\CMAKELANGUAGEINFORMATION.CMAKE
C:\USERS\CHRISTOPHER\WORK\SPRING\CMAKE\SHARE\CMAKE-3.10\MODULES\CMAKEPACKAGECONFIGHELPERS.CMAKE
C:\USERS\CHRISTOPHER\WORK\SPRING\CMAKE\SHARE\CMAKE-3.10\MODULES\CMAKEPARSEIMPLICITLINKINFO.CMAKE
C:\USERS\CHRISTOPHER\WORK\SPRING\CMAKE\SHARE\CMAKE-3.10\MODULES\CMAKERCCOMPILER.CMAKE.IN
C:\USERS\CHRISTOPHER\WORK\SPRING\CMAKE\SHARE\CMAKE-3.10\MODULES\CMAKERCINFORMATION.CMAKE
C:\USERS\CHRISTOPHER\WORK\SPRING\CMAKE\SHARE\CMAKE-3.10\MODULES\CMAKESYSTEM.CMAKE.IN
C:\USERS\CHRISTOPHER\WORK\SPRING\CMAKE\SHARE\CMAKE-3.10\MODULES\CMAKESYSTEMSPECIFICINFORMATION.CMAKE
C:\USERS\CHRISTOPHER\WORK\SPRING\CMAKE\SHARE\CMAKE-3.10\MODULES\CMAKESYSTEMSPECIFICINITIALIZE.CMAKE
C:\USERS\CHRISTOPHER\WORK\SPRING\CMAKE\SHARE\CMAKE-3.10\MODULES\CMAKETESTCCOMPILER.CMAKE
C:\USERS\CHRISTOPHER\WORK\SPRING\CMAKE\SHARE\CMAKE-3.10\MODULES\CMAKETESTCXXCOMPILER.CMAKE
C:\USERS\CHRISTOPHER\WORK\SPRING\CMAKE\SHARE\CMAKE-3.10\MODULES\CMAKETESTCOMPILERCOMMON.CMAKE
C:\USERS\CHRISTOPHER\WORK\SPRING\CMAKE\SHARE\CMAKE-3.10\MODULES\CMAKETESTRCCOMPILER.CMAKE
C:\USERS\CHRISTOPHER\WORK\SPRING\CMAKE\SHARE\CMAKE-3.10\MODULES\CHECKINCLUDEFILE.C.IN
C:\USERS\CHRISTOPHER\WORK\SPRING\CMAKE\SHARE\CMAKE-3.10\MODULES\CHECKINCLUDEFILE.CMAKE
C:\USERS\CHRISTOPHER\WORK\SPRING\CMAKE\SHARE\CMAKE-3.10\MODULES\CHECKLIBRARYEXISTS.CMAKE
C:\USERS\CHRISTOPHER\WORK\SPRING\CMAKE\SHARE\CMAKE-3.10\MODULES\CHECKSYMBOLEXISTS.CMAKE
C:\USERS\CHRISTOPHER\WORK\SPRING\CMAKE\SHARE\CMAKE-3.10\MODULES\COMPILER\ADSP-DETERMINECOMPILER.CMAKE
C:\USERS\CHRISTOPHER\WORK\SPRING\CMAKE\SHARE\CMAKE-3.10\MODULES\COMPILER\ARMCC-DETERMINECOMPILER.CMAKE
C:\USERS\CHRISTOPHER\WORK\SPRING\CMAKE\SHARE\CMAKE-3.10\MODULES\COMPILER\APPLECLANG-DETERMINECOMPILER.CMAKE
C:\USERS\CHRISTOPHER\WORK\SPRING\CMAKE\SHARE\CMAKE-3.10\MODULES\COMPILER\BORLAND-DETERMINECOMPILER.CMAKE
C:\USERS\CHRISTOPHER\WORK\SPRING\CMAKE\SHARE\CMAKE-3.10\MODULES\COMPILER\BRUCE-C-DETERMINECOMPILER.CMAKE
C:\USERS\CHRISTOPHER\WORK\SPRING\CMAKE\SHARE\CMAKE-3.10\MODULES\COMPILER\CMAKECOMMONCOMPILERMACROS.CMAKE
C:\USERS\CHRISTOPHER\WORK\SPRING\CMAKE\SHARE\CMAKE-3.10\MODULES\COMPILER\CLANG-DETERMINECOMPILER.CMAKE
C:\USERS\CHRISTOPHER\WORK\SPRING\CMAKE\SHARE\CMAKE-3.10\MODULES\COMPILER\CLANG-DETERMINECOMPILERINTERNAL.CMAKE
C:\USERS\CHRISTOPHER\WORK\SPRING\CMAKE\SHARE\CMAKE-3.10\MODULES\COMPILER\COMEAU-CXX-DETERMINECOMPILER.CMAKE
C:\USERS\CHRISTOPHER\WORK\SPRING\CMAKE\SHARE\CMAKE-3.10\MODULES\COMPILER\COMPAQ-C-DETERMINECOMPILER.CMAKE
C:\USERS\CHRISTOPHER\WORK\SPRING\CMAKE\SHARE\CMAKE-3.10\MODULES\COMPILER\COMPAQ-CXX-DETERMINECOMPILER.CMAKE
C:\USERS\CHRISTOPHER\WORK\SPRING\CMAKE\SHARE\CMAKE-3.10\MODULES\COMPILER\CRAY-DETERMINECOMPILER.CMAKE
C:\USERS\CHRISTOPHER\WORK\SPRING\CMAKE\SHARE\CMAKE-3.10\MODULES\COMPILER\EMBARCADERO-DETERMINECOMPILER.CMAKE
C:\USERS\CHRISTOPHER\WORK\SPRING\CMAKE\SHARE\CMAKE-3.10\MODULES\COMPILER\FUJITSU-DETERMINECOMPILER.CMAKE
C:\USERS\CHRISTOPHER\WORK\SPRING\CMAKE\SHARE\CMAKE-3.10\MODULES\COMPILER\GHS-DETERMINECOMPILER.CMAKE
C:\USERS\CHRISTOPHER\WORK\SPRING\CMAKE\SHARE\CMAKE-3.10\MODULES\COMPILER\GNU-C-DETERMINECOMPILER.CMAKE
C:\USERS\CHRISTOPHER\WORK\SPRING\CMAKE\SHARE\CMAKE-3.10\MODULES\COMPILER\GNU-CXX-DETERMINECOMPILER.CMAKE
C:\USERS\CHRISTOPHER\WORK\SPRING\CMAKE\SHARE\CMAKE-3.10\MODULES\COMPILER\HP-C-DETERMINECOMPILER.CMAKE
C:\USERS\CHRISTOPHER\WORK\SPRING\CMAKE\SHARE\CMAKE-3.10\MODULES\COMPILER\HP-CXX-DETERMINECOMPILER.CMAKE
C:\USERS\CHRISTOPHER\WORK\SPRING\CMAKE\SHARE\CMAKE-3.10\MODULES\COMPILER\IAR-DETERMINECOMPILER.CMAKE
C:\USERS\CHRISTOPHER\WORK\SPRING\CMAKE\SHARE\CMAKE-3.10\MODULES\COMPILER\IBMCPP-C-DETERMINEVERSIONINTERNAL.CMAKE
C:\USERS\CHRISTOPHER\WORK\SPRING\CMAKE\SHARE\CMAKE-3.10\MODULES\COMPILER\IBMCPP-CXX-DETERMINEVERSIONINTERNAL.CMAKE
C:\USERS\CHRISTOPHER\WORK\SPRING\CMAKE\SHARE\CMAKE-3.10\MODULES\COMPILER\INTEL-DETERMINECOMPILER.CMAKE
C:\USERS\CHRISTOPHER\WORK\SPRING\CMAKE\SHARE\CMAKE-3.10\MODULES\COMPILER\MIPSPRO-DETERMINECOMPILER.CMAKE
C:\USERS\CHRISTOPHER\WORK\SPRING\CMAKE\SHARE\CMAKE-3.10\MODULES\COMPILER\MSVC-CXX-FEATURETESTS.CMAKE
C:\USERS\CHRISTOPHER\WORK\SPRING\CMAKE\SHARE\CMAKE-3.10\MODULES\COMPILER\MSVC-CXX.CMAKE
C:\USERS\CHRISTOPHER\WORK\SPRING\CMAKE\SHARE\CMAKE-3.10\MODULES\COMPILER\MSVC-DETERMINECOMPILER.CMAKE
C:\USERS\CHRISTOPHER\WORK\SPRING\CMAKE\SHARE\CMAKE-3.10\MODULES\COMPILER\NVIDIA-DETERMINECOMPILER.CMAKE
C:\USERS\CHRISTOPHER\WORK\SPRING\CMAKE\SHARE\CMAKE-3.10\MODULES\COMPILER\OPENWATCOM-DETERMINECOMPILER.CMAKE
C:\USERS\CHRISTOPHER\WORK\SPRING\CMAKE\SHARE\CMAKE-3.10\MODULES\COMPILER\PGI-DETERMINECOMPILER.CMAKE
C:\USERS\CHRISTOPHER\WORK\SPRING\CMAKE\SHARE\CMAKE-3.10\MODULES\COMPILER\PATHSCALE-DETERMINECOMPILER.CMAKE
C:\USERS\CHRISTOPHER\WORK\SPRING\CMAKE\SHARE\CMAKE-3.10\MODULES\COMPILER\SCO-DETERMINECOMPILER.CMAKE
C:\USERS\CHRISTOPHER\WORK\SPRING\CMAKE\SHARE\CMAKE-3.10\MODULES\COMPILER\SDCC-C-DETERMINECOMPILER.CMAKE
C:\USERS\CHRISTOPHER\WORK\SPRING\CMAKE\SHARE\CMAKE-3.10\MODULES\COMPILER\SUNPRO-C-DETERMINECOMPILER.CMAKE
C:\USERS\CHRISTOPHER\WORK\SPRING\CMAKE\SHARE\CMAKE-3.10\MODULES\COMPILER\SUNPRO-CXX-DETERMINECOMPILER.CMAKE
C:\USERS\CHRISTOPHER\WORK\SPRING\CMAKE\SHARE\CMAKE-3.10\MODULES\COMPILER\TI-DETERMINECOMPILER.CMAKE
C:\USERS\CHRISTOPHER\WORK\SPRING\CMAKE\SHARE\CMAKE-3.10\MODULES\COMPILER\TINYCC-C-DETERMINECOMPILER.CMAKE
C:\USERS\CHRISTOPHER\WORK\SPRING\CMAKE\SHARE\CMAKE-3.10\MODULES\COMPILER\VISUALAGE-C-DETERMINECOMPILER.CMAKE
C:\USERS\CHRISTOPHER\WORK\SPRING\CMAKE\SHARE\CMAKE-3.10\MODULES\COMPILER\VISUALAGE-CXX-DETERMINECOMPILER.CMAKE
C:\USERS\CHRISTOPHER\WORK\SPRING\CMAKE\SHARE\CMAKE-3.10\MODULES\COMPILER\WATCOM-DETERMINECOMPILER.CMAKE
C:\USERS\CHRISTOPHER\WORK\SPRING\CMAKE\SHARE\CMAKE-3.10\MODULES\COMPILER\XL-C-DETERMINECOMPILER.CMAKE
C:\USERS\CHRISTOPHER\WORK\SPRING\CMAKE\SHARE\CMAKE-3.10\MODULES\COMPILER\XL-CXX-DETERMINECOMPILER.CMAKE
C:\USERS\CHRISTOPHER\WORK\SPRING\CMAKE\SHARE\CMAKE-3.10\MODULES\COMPILER\ZOS-C-DETERMINECOMPILER.CMAKE
C:\USERS\CHRISTOPHER\WORK\SPRING\CMAKE\SHARE\CMAKE-3.10\MODULES\COMPILER\ZOS-CXX-DETERMINECOMPILER.CMAKE
C:\USERS\CHRISTOPHER\WORK\SPRING\CMAKE\SHARE\CMAKE-3.10\MODULES\COMPILERID\VS-10.VCXPROJ.IN
C:\USERS\CHRISTOPHER\WORK\SPRING\CMAKE\SHARE\CMAKE-3.10\MODULES\FINDPACKAGEHANDLESTANDARDARGS.CMAKE
C:\USERS\CHRISTOPHER\WORK\SPRING\CMAKE\SHARE\CMAKE-3.10\MODULES\FINDPACKAGEMESSAGE.CMAKE
C:\USERS\CHRISTOPHER\WORK\SPRING\CMAKE\SHARE\CMAKE-3.10\MODULES\FINDTHREADS.CMAKE
C:\USERS\CHRISTOPHER\WORK\SPRING\CMAKE\SHARE\CMAKE-3.10\MODULES\INTERNAL\FEATURETESTING.CMAKE
C:\USERS\CHRISTOPHER\WORK\SPRING\CMAKE\SHARE\CMAKE-3.10\MODULES\PLATFORM\WINDOWS-DETERMINE-CXX.CMAKE
C:\USERS\CHRISTOPHER\WORK\SPRING\CMAKE\SHARE\CMAKE-3.10\MODULES\PLATFORM\WINDOWS-MSVC-C.CMAKE
C:\USERS\CHRISTOPHER\WORK\SPRING\CMAKE\SHARE\CMAKE-3.10\MODULES\PLATFORM\WINDOWS-MSVC-CXX.CMAKE
C:\USERS\CHRISTOPHER\WORK\SPRING\CMAKE\SHARE\CMAKE-3.10\MODULES\PLATFORM\WINDOWS-MSVC.CMAKE
C:\USERS\CHRISTOPHER\WORK\SPRING\CMAKE\SHARE\CMAKE-3.10\MODULES\PLATFORM\WINDOWS.CMAKE
C:\USERS\CHRISTOPHER\WORK\SPRING\CMAKE\SHARE\CMAKE-3.10\MODULES\PLATFORM\WINDOWSPATHS.CMAKE
C:\USERS\CHRISTOPHER\WORK\SPRING\CMAKE\SHARE\CMAKE-3.10\MODULES\WRITEBASICCONFIGVERSIONFILE.CMAKE
