#Command:  
C:\WINDOWS\MICROSOFT.NET\FRAMEWORK\V2.0.50727\MSCORWKS.DLL
C:\WINDOWS\MICROSOFT.NET\FRAMEWORK\V4.0.30319\CLR.DLL
C:\PROGRAM FILES (X86)\MICROSOFT VISUAL STUDIO 14.0\VC\BIN\VCTIP.EXE
C:\WINDOWS\MICROSOFT.NET\FRAMEWORK\V4.0.30319\CLR.DLL
C:\WINDOWS\MICROSOFT.NET\FRAMEWORK\V4.0.30319\CONFIG\MACHINE.CONFIG
C:\USERS\CHRISTOPHER\APPDATA\LOCAL\MICROSOFT\CLR_V4.0_32\USAGELOGS\VCTIP.EXE.LOG
C:\WINDOWS\GLOBALIZATION\SORTING\SORTDEFAULT.NLS
C:\WINDOWS\MICROSOFT.NET\ASSEMBLY\GAC_32\MSCORLIB\V4.0_4.0.0.0__B77A5C561934E089\MSCORLIB.DLL
C:\WINDOWS\ASSEMBLY\NATIVEIMAGES_V4.0.30319_32\MSCORLIB\1B2E7F5CC7171797D3AAC21369BB10CF\MSCORLIB.NI.DLL
C:\WINDOWS\ASSEMBLY\NATIVEIMAGES_V4.0.30319_32\MSCORLIB\1B2E7F5CC7171797D3AAC21369BB10CF\MSCORLIB.NI.DLL.AUX
C:\WINDOWS\MICROSOFT.NET\ASSEMBLY\GAC_32\MSCORLIB\V4.0_4.0.0.0__B77A5C561934E089\MSCORLIB.DLL
C:\PROGRAM FILES (X86)\MICROSOFT VISUAL STUDIO 14.0\VC\BIN\VCTIP.EXE
C:\WINDOWS\SYSTEM32\TZRES.DLL
C:\WINDOWS\ASSEMBLY\PUBPOL186.DAT
C:\WINDOWS\MICROSOFT.NET\FRAMEWORK\V4.0.30319\CONFIG\MACHINE.CONFIG
C:\WINDOWS\MICROSOFT.NET\ASSEMBLY\GAC_MSIL\SYSTEM\V4.0_4.0.0.0__B77A5C561934E089\SYSTEM.DLL
C:\WINDOWS\ASSEMBLY\NATIVEIMAGES_V4.0.30319_32\SYSTEM\0C755498C90B50E115A5F60C7B7839BD\SYSTEM.NI.DLL
C:\WINDOWS\ASSEMBLY\NATIVEIMAGES_V4.0.30319_32\SYSTEM\0C755498C90B50E115A5F60C7B7839BD\SYSTEM.NI.DLL.AUX
C:\WINDOWS\MICROSOFT.NET\ASSEMBLY\GAC_MSIL\SYSTEM\V4.0_4.0.0.0__B77A5C561934E089\SYSTEM.DLL
C:\WINDOWS\MICROSOFT.NET\ASSEMBLY\GAC_MSIL\SYSTEM.CONFIGURATION\V4.0_4.0.0.0__B03F5F7F11D50A3A\SYSTEM.CONFIGURATION.DLL
C:\WINDOWS\MICROSOFT.NET\ASSEMBLY\GAC_MSIL\SYSTEM.XML\V4.0_4.0.0.0__B77A5C561934E089\SYSTEM.XML.DLL
C:\WINDOWS\MICROSOFT.NET\ASSEMBLY\GAC_MSIL\SYSTEM.CORE\V4.0_4.0.0.0__B77A5C561934E089\SYSTEM.CORE.DLL
C:\WINDOWS\ASSEMBLY\NATIVEIMAGES_V4.0.30319_32\SYSTEM.CORE\44DF0AC5C975B265F468FCFF3D64A82E\SYSTEM.CORE.NI.DLL
C:\WINDOWS\ASSEMBLY\NATIVEIMAGES_V4.0.30319_32\SYSTEM.CORE\44DF0AC5C975B265F468FCFF3D64A82E\SYSTEM.CORE.NI.DLL.AUX
C:\WINDOWS\MICROSOFT.NET\ASSEMBLY\GAC_MSIL\SYSTEM.CORE\V4.0_4.0.0.0__B77A5C561934E089\SYSTEM.CORE.DLL
C:\WINDOWS\MICROSOFT.NET\ASSEMBLY\GAC_MSIL\SYSTEM.NUMERICS\V4.0_4.0.0.0__B77A5C561934E089\SYSTEM.NUMERICS.DLL
C:\WINDOWS\MICROSOFT.NET\ASSEMBLY\GAC_MSIL\SYSTEM.SECURITY\V4.0_4.0.0.0__B03F5F7F11D50A3A\SYSTEM.SECURITY.DLL
C:\WINDOWS\SYSTEM32\EN-US\TZRES.DLL.MUI
C:\PROGRAM FILES (X86)\MICROSOFT VISUAL STUDIO 14.0\VC\BIN\VCTIP.EXE
C:\WINDOWS\SYSTEM32\WINNLSRES.DLL
C:\PROGRAM FILES (X86)\MICROSOFT VISUAL STUDIO 14.0\VC\BIN\VCTIP.EXE
C:\USERS\CHRISTOPHER\APPDATA\LOCAL\MICROSOFT\CLR_V4.0_32\USAGELOGS\VCTIP.EXE.LOG
