#Command:  
C:\WINDOWS\MICROSOFT.NET\ASSEMBLY\GAC_MSIL\SYSTEM.DRAWING\V4.0_4.0.0.0__B03F5F7F11D50A3A\SYSTEM.DRAWING.DLL
C:\WINDOWS\ASSEMBLY\NATIVEIMAGES_V4.0.30319_32\SYSTEM.DRAWING\717FF9F99BC5209F077C64FC30F2DD98\SYSTEM.DRAWING.NI.DLL
C:\WINDOWS\ASSEMBLY\NATIVEIMAGES_V4.0.30319_32\SYSTEM.DRAWING\717FF9F99BC5209F077C64FC30F2DD98\SYSTEM.DRAWING.NI.DLL.AUX
C:\WINDOWS\MICROSOFT.NET\ASSEMBLY\GAC_MSIL\SYSTEM.DRAWING\V4.0_4.0.0.0__B03F5F7F11D50A3A\SYSTEM.DRAWING.DLL
C:\WINDOWS\MICROSOFT.NET\ASSEMBLY\GAC_MSIL\SYSTEM.WINDOWS.FORMS\V4.0_4.0.0.0__B77A5C561934E089\SYSTEM.WINDOWS.FORMS.DLL
C:\WINDOWS\ASSEMBLY\NATIVEIMAGES_V4.0.30319_32\SYSTEM.WINDOWS.FORMS\F2CECAC17A021DF74CB0B3E7DEEC7FDA\SYSTEM.WINDOWS.FORMS.NI.DLL
C:\WINDOWS\ASSEMBLY\NATIVEIMAGES_V4.0.30319_32\SYSTEM.WINDOWS.FORMS\F2CECAC17A021DF74CB0B3E7DEEC7FDA\SYSTEM.WINDOWS.FORMS.NI.DLL.AUX
C:\WINDOWS\MICROSOFT.NET\ASSEMBLY\GAC_MSIL\SYSTEM.WINDOWS.FORMS\V4.0_4.0.0.0__B77A5C561934E089\SYSTEM.WINDOWS.FORMS.DLL
C:\WINDOWS\MICROSOFT.NET\ASSEMBLY\GAC_MSIL\ACCESSIBILITY\V4.0_4.0.0.0__B03F5F7F11D50A3A\ACCESSIBILITY.DLL
C:\WINDOWS\MICROSOFT.NET\ASSEMBLY\GAC_MSIL\SYSTEM.DEPLOYMENT\V4.0_4.0.0.0__B03F5F7F11D50A3A\SYSTEM.DEPLOYMENT.DLL
C:\WINDOWS\MICROSOFT.NET\ASSEMBLY\GAC_MSIL\SYSTEM.RUNTIME.SERIALIZATION.FORMATTERS.SOAP\V4.0_4.0.0.0__B03F5F7F11D50A3A\SYSTEM.RUNTIME.SERIALIZATION.FORMATTERS.SOAP.DLL
C:\WINDOWS\MICROSOFT.NET\ASSEMBLY\GAC_MSIL\SYSTEM.XML.LINQ\V4.0_4.0.0.0__B77A5C561934E089\SYSTEM.XML.LINQ.DLL
C:\WINDOWS\ASSEMBLY\NATIVEIMAGES_V4.0.30319_32\SYSTEM.XML.LINQ\3D2EE290FE5A04AF9BE7946F24A4A28F\SYSTEM.XML.LINQ.NI.DLL
C:\WINDOWS\ASSEMBLY\NATIVEIMAGES_V4.0.30319_32\SYSTEM.XML.LINQ\3D2EE290FE5A04AF9BE7946F24A4A28F\SYSTEM.XML.LINQ.NI.DLL.AUX
C:\WINDOWS\MICROSOFT.NET\ASSEMBLY\GAC_MSIL\SYSTEM.XML.LINQ\V4.0_4.0.0.0__B77A5C561934E089\SYSTEM.XML.LINQ.DLL
C:\WINDOWS\MICROSOFT.NET\ASSEMBLY\GAC_MSIL\SYSTEM.RUNTIME.SERIALIZATION\V4.0_4.0.0.0__B77A5C561934E089\SYSTEM.RUNTIME.SERIALIZATION.DLL
C:\WINDOWS\MICROSOFT.NET\ASSEMBLY\GAC_MSIL\SYSTEM.NET.HTTP\V4.0_4.0.0.0__B03F5F7F11D50A3A\SYSTEM.NET.HTTP.DLL
C:\WINDOWS\ASSEMBLY\NATIVEIMAGES_V4.0.30319_32\SYSTEM.NET.HTTP\DAD79B7BAA106049AA8C6629DD279372\SYSTEM.NET.HTTP.NI.DLL
C:\WINDOWS\ASSEMBLY\NATIVEIMAGES_V4.0.30319_32\SYSTEM.NET.HTTP\DAD79B7BAA106049AA8C6629DD279372\SYSTEM.NET.HTTP.NI.DLL.AUX
C:\WINDOWS\MICROSOFT.NET\ASSEMBLY\GAC_MSIL\SYSTEM.NET.HTTP\V4.0_4.0.0.0__B03F5F7F11D50A3A\SYSTEM.NET.HTTP.DLL
