#Command:  
C:\PROGRAM FILES (X86)\MICROSOFT VISUAL STUDIO 14.0\VC\BIN\VCTIP.EXE
C:\WINDOWS\SYSTEM32\NTDLL.DLL
C:\WINDOWS\SYSTEM32\MSCOREE.DLL
C:\WINDOWS\SYSTEM32\KERNEL32.DLL
C:\WINDOWS\SYSTEM32\KERNELBASE.DLL
C:\PROGRAM FILES (X86)\MSBUILD\14.0\BIN\FILETRACKER32.DLL
C:\WINDOWS\SYSTEM32\ADVAPI32.DLL
C:\WINDOWS\SYSTEM32\MSVCRT.DLL
C:\WINDOWS\SYSTEM32\SECHOST.DLL
C:\WINDOWS\SYSTEM32\RPCRT4.DLL
C:\WINDOWS\SYSTEM32\SSPICLI.DLL
C:\WINDOWS\SYSTEM32\CRYPTBASE.DLL
C:\WINDOWS\SYSTEM32\BCRYPTPRIMITIVES.DLL
C:\WINDOWS\SYSTEM32\UCRTBASE.DLL
C:\WINDOWS\SYSTEM32\OLE32.DLL
C:\WINDOWS\SYSTEM32\COMBASE.DLL
C:\WINDOWS\SYSTEM32\VCRUNTIME140.DLL
C:\WINDOWS\SYSTEM32\GDI32.DLL
C:\WINDOWS\SYSTEM32\GDI32FULL.DLL
C:\WINDOWS\SYSTEM32\MSVCP_WIN.DLL
C:\WINDOWS\SYSTEM32\USER32.DLL
C:\WINDOWS\SYSTEM32\WIN32U.DLL
C:\WINDOWS\SYSTEM32\OLEAUT32.DLL
C:\WINDOWS\SYSTEM32\SHELL32.DLL
C:\WINDOWS\SYSTEM32\CFGMGR32.DLL
C:\WINDOWS\SYSTEM32\SHCORE.DLL
C:\WINDOWS\SYSTEM32\MSVCP140.DLL
C:\WINDOWS\SYSTEM32\WINDOWS.STORAGE.DLL
C:\WINDOWS\SYSTEM32\SHLWAPI.DLL
C:\WINDOWS\SYSTEM32\KERNEL.APPCORE.DLL
C:\WINDOWS\SYSTEM32\POWRPROF.DLL
C:\WINDOWS\SYSTEM32\PROFAPI.DLL
C:\WINDOWS\SYSTEM32\IMM32.DLL
C:\WINDOWS\MICROSOFT.NET\FRAMEWORK\V4.0.30319\MSCOREEI.DLL
C:\WINDOWS\SYSTEM32\VERSION.DLL
C:\WINDOWS\MICROSOFT.NET\FRAMEWORK\V4.0.30319\CLR.DLL
C:\WINDOWS\SYSTEM32\MSVCR120_CLR0400.DLL
C:\WINDOWS\ASSEMBLY\NATIVEIMAGES_V4.0.30319_32\MSCORLIB\1B2E7F5CC7171797D3AAC21369BB10CF\MSCORLIB.NI.DLL
C:\WINDOWS\MICROSOFT.NET\FRAMEWORK\V4.0.30319\CLRJIT.DLL
C:\WINDOWS\ASSEMBLY\NATIVEIMAGES_V4.0.30319_32\SYSTEM\0C755498C90B50E115A5F60C7B7839BD\SYSTEM.NI.DLL
C:\WINDOWS\ASSEMBLY\NATIVEIMAGES_V4.0.30319_32\SYSTEM.CORE\44DF0AC5C975B265F468FCFF3D64A82E\SYSTEM.CORE.NI.DLL
C:\WINDOWS\SYSTEM32\SQMAPI.DLL
C:\WINDOWS\SYSTEM32\BCRYPT.DLL
C:\WINDOWS\SYSTEM32\CLBCATQ.DLL
C:\WINDOWS\ASSEMBLY\NATIVEIMAGES_V4.0.30319_32\SYSTEM.DRAWING\717FF9F99BC5209F077C64FC30F2DD98\SYSTEM.DRAWING.NI.DLL
C:\WINDOWS\ASSEMBLY\NATIVEIMAGES_V4.0.30319_32\SYSTEM.WINDOWS.FORMS\F2CECAC17A021DF74CB0B3E7DEEC7FDA\SYSTEM.WINDOWS.FORMS.NI.DLL
C:\WINDOWS\SYSTEM32\UXTHEME.DLL
C:\WINDOWS\SYSTEM32\MSCTF.DLL
C:\WINDOWS\WINSXS\X86_MICROSOFT.WINDOWS.GDIPLUS_6595B64144CCF1DF_1.1.15063.608_NONE_9E9D5D4256D15DEF\GDIPLUS.DLL
C:\WINDOWS\SYSTEM32\WKSCLI.DLL
C:\WINDOWS\SYSTEM32\NETUTILS.DLL
C:\WINDOWS\ASSEMBLY\NATIVEIMAGES_V4.0.30319_32\SYSTEM.CONFIGURATION\394DF4DDF2988D22AD13AF28C6C5464B\SYSTEM.CONFIGURATION.NI.DLL
C:\WINDOWS\ASSEMBLY\NATIVEIMAGES_V4.0.30319_32\SYSTEM.XML\C5C3B21C41385D02694699A7540FC462\SYSTEM.XML.NI.DLL
C:\WINDOWS\SYSTEM32\CRYPTSP.DLL
C:\WINDOWS\SYSTEM32\RSAENH.DLL
C:\WINDOWS\SYSTEM32\RASAPI32.DLL
C:\WINDOWS\SYSTEM32\RASMAN.DLL
C:\WINDOWS\SYSTEM32\RTUTILS.DLL
C:\WINDOWS\SYSTEM32\WS2_32.DLL
C:\WINDOWS\SYSTEM32\MSWSOCK.DLL
C:\WINDOWS\SYSTEM32\WINHTTP.DLL
C:\WINDOWS\SYSTEM32\IPHLPAPI.DLL
C:\WINDOWS\SYSTEM32\NSI.DLL
C:\WINDOWS\SYSTEM32\DHCPCSVC6.DLL
C:\WINDOWS\SYSTEM32\DHCPCSVC.DLL
C:\WINDOWS\SYSTEM32\DNSAPI.DLL
C:\WINDOWS\SYSTEM32\WINNSI.DLL
C:\PROGRAM FILES (X86)\BONJOUR\MDNSNSP.DLL
C:\WINDOWS\SYSTEM32\RASADHLP.DLL
C:\WINDOWS\SYSTEM32\FWPUCLNT.DLL
C:\WINDOWS\SYSTEM32\PSAPI.DLL
C:\WINDOWS\SYSTEM32\SECUR32.DLL
C:\WINDOWS\SYSTEM32\SCHANNEL.DLL
C:\WINDOWS\SYSTEM32\CRYPT32.DLL
C:\WINDOWS\SYSTEM32\MSASN1.DLL
C:\WINDOWS\SYSTEM32\MSKEYPROTECT.DLL
C:\WINDOWS\SYSTEM32\NCRYPT.DLL
C:\WINDOWS\SYSTEM32\NTASN1.DLL
C:\WINDOWS\SYSTEM32\NCRYPTSSLP.DLL
C:\WINDOWS\ASSEMBLY\NATIVEIMAGES_V4.0.30319_32\SYSTEM.XML.LINQ\3D2EE290FE5A04AF9BE7946F24A4A28F\SYSTEM.XML.LINQ.NI.DLL
C:\WINDOWS\MICROSOFT.NET\FRAMEWORK\V4.0.30319\DIASYMREADER.DLL
C:\WINDOWS\ASSEMBLY\NATIVEIMAGES_V4.0.30319_32\SYSTEM.NET.HTTP\DAD79B7BAA106049AA8C6629DD279372\SYSTEM.NET.HTTP.NI.DLL
C:\WINDOWS\MICROSOFT.NET\FRAMEWORK\V4.0.30319\CLRCOMPRESSION.DLL
C:\WINDOWS\SYSTEM32\WER.DLL
C:\WINDOWS\SYSTEM32\AEPIC.DLL
C:\WINDOWS\SYSTEM32\NTMARTA.DLL
C:\WINDOWS\SYSTEM32\SFC.DLL
C:\WINDOWS\SYSTEM32\SFC_OS.DLL
C:\WINDOWS\SYSTEM32\SETUPAPI.DLL
C:\WINDOWS\SYSTEM32\DEVRTL.DLL
C:\WINDOWS\WINSXS\X86_MICROSOFT.WINDOWS.COMMON-CONTROLS_6595B64144CCF1DF_5.82.15063.413_NONE_55BC94A37C2A2854\COMCTL32.DLL
C:\WINDOWS\SYSTEM32\DBGHELP.DLL
C:\WINDOWS\SYSTEM32\DBGCORE.DLL
C:\PROGRAM FILES (X86)\MICROSOFT VISUAL STUDIO 14.0\VC\BIN\VCTIP.EXE
C:\WINDOWS\SYSTEM32\NTDLL.DLL
C:\WINDOWS\SYSTEM32\MSCOREE.DLL
C:\WINDOWS\SYSTEM32\KERNEL32.DLL
C:\WINDOWS\SYSTEM32\KERNELBASE.DLL
C:\PROGRAM FILES (X86)\MSBUILD\14.0\BIN\FILETRACKER32.DLL
C:\WINDOWS\SYSTEM32\ADVAPI32.DLL
C:\WINDOWS\SYSTEM32\MSVCRT.DLL
C:\WINDOWS\SYSTEM32\SECHOST.DLL
C:\WINDOWS\SYSTEM32\RPCRT4.DLL
C:\WINDOWS\SYSTEM32\SSPICLI.DLL
C:\WINDOWS\SYSTEM32\CRYPTBASE.DLL
C:\WINDOWS\SYSTEM32\BCRYPTPRIMITIVES.DLL
C:\WINDOWS\SYSTEM32\UCRTBASE.DLL
C:\WINDOWS\SYSTEM32\OLE32.DLL
C:\WINDOWS\SYSTEM32\COMBASE.DLL
C:\WINDOWS\SYSTEM32\VCRUNTIME140.DLL
C:\WINDOWS\SYSTEM32\GDI32.DLL
C:\WINDOWS\SYSTEM32\GDI32FULL.DLL
C:\WINDOWS\SYSTEM32\MSVCP_WIN.DLL
C:\WINDOWS\SYSTEM32\USER32.DLL
C:\WINDOWS\SYSTEM32\WIN32U.DLL
C:\WINDOWS\SYSTEM32\OLEAUT32.DLL
C:\WINDOWS\SYSTEM32\SHELL32.DLL
C:\WINDOWS\SYSTEM32\CFGMGR32.DLL
C:\WINDOWS\SYSTEM32\SHCORE.DLL
C:\WINDOWS\SYSTEM32\MSVCP140.DLL
C:\WINDOWS\SYSTEM32\WINDOWS.STORAGE.DLL
C:\WINDOWS\SYSTEM32\SHLWAPI.DLL
C:\WINDOWS\SYSTEM32\KERNEL.APPCORE.DLL
C:\WINDOWS\SYSTEM32\POWRPROF.DLL
C:\WINDOWS\SYSTEM32\PROFAPI.DLL
C:\WINDOWS\SYSTEM32\IMM32.DLL
C:\WINDOWS\MICROSOFT.NET\FRAMEWORK\V4.0.30319\MSCOREEI.DLL
C:\WINDOWS\SYSTEM32\VERSION.DLL
C:\WINDOWS\MICROSOFT.NET\FRAMEWORK\V4.0.30319\CLR.DLL
C:\WINDOWS\SYSTEM32\MSVCR120_CLR0400.DLL
C:\WINDOWS\ASSEMBLY\NATIVEIMAGES_V4.0.30319_32\MSCORLIB\1B2E7F5CC7171797D3AAC21369BB10CF\MSCORLIB.NI.DLL
C:\WINDOWS\MICROSOFT.NET\FRAMEWORK\V4.0.30319\CLRJIT.DLL
C:\WINDOWS\ASSEMBLY\NATIVEIMAGES_V4.0.30319_32\SYSTEM\0C755498C90B50E115A5F60C7B7839BD\SYSTEM.NI.DLL
C:\WINDOWS\ASSEMBLY\NATIVEIMAGES_V4.0.30319_32\SYSTEM.CORE\44DF0AC5C975B265F468FCFF3D64A82E\SYSTEM.CORE.NI.DLL
C:\WINDOWS\SYSTEM32\SQMAPI.DLL
C:\WINDOWS\SYSTEM32\BCRYPT.DLL
C:\WINDOWS\SYSTEM32\CLBCATQ.DLL
C:\WINDOWS\ASSEMBLY\NATIVEIMAGES_V4.0.30319_32\SYSTEM.DRAWING\717FF9F99BC5209F077C64FC30F2DD98\SYSTEM.DRAWING.NI.DLL
C:\WINDOWS\ASSEMBLY\NATIVEIMAGES_V4.0.30319_32\SYSTEM.WINDOWS.FORMS\F2CECAC17A021DF74CB0B3E7DEEC7FDA\SYSTEM.WINDOWS.FORMS.NI.DLL
C:\WINDOWS\SYSTEM32\UXTHEME.DLL
C:\WINDOWS\SYSTEM32\MSCTF.DLL
C:\WINDOWS\WINSXS\X86_MICROSOFT.WINDOWS.GDIPLUS_6595B64144CCF1DF_1.1.15063.608_NONE_9E9D5D4256D15DEF\GDIPLUS.DLL
C:\WINDOWS\SYSTEM32\WKSCLI.DLL
C:\WINDOWS\SYSTEM32\NETUTILS.DLL
C:\WINDOWS\ASSEMBLY\NATIVEIMAGES_V4.0.30319_32\SYSTEM.CONFIGURATION\394DF4DDF2988D22AD13AF28C6C5464B\SYSTEM.CONFIGURATION.NI.DLL
C:\WINDOWS\ASSEMBLY\NATIVEIMAGES_V4.0.30319_32\SYSTEM.XML\C5C3B21C41385D02694699A7540FC462\SYSTEM.XML.NI.DLL
C:\WINDOWS\SYSTEM32\CRYPTSP.DLL
C:\WINDOWS\SYSTEM32\RSAENH.DLL
C:\WINDOWS\SYSTEM32\RASAPI32.DLL
C:\WINDOWS\SYSTEM32\RASMAN.DLL
C:\WINDOWS\SYSTEM32\RTUTILS.DLL
C:\WINDOWS\SYSTEM32\WS2_32.DLL
C:\WINDOWS\SYSTEM32\MSWSOCK.DLL
C:\WINDOWS\SYSTEM32\WINHTTP.DLL
C:\WINDOWS\SYSTEM32\IPHLPAPI.DLL
C:\WINDOWS\SYSTEM32\NSI.DLL
C:\WINDOWS\SYSTEM32\DHCPCSVC6.DLL
C:\WINDOWS\SYSTEM32\DHCPCSVC.DLL
C:\WINDOWS\SYSTEM32\DNSAPI.DLL
C:\WINDOWS\SYSTEM32\WINNSI.DLL
C:\PROGRAM FILES (X86)\BONJOUR\MDNSNSP.DLL
C:\WINDOWS\SYSTEM32\RASADHLP.DLL
C:\WINDOWS\SYSTEM32\FWPUCLNT.DLL
C:\WINDOWS\SYSTEM32\PSAPI.DLL
C:\WINDOWS\SYSTEM32\SECUR32.DLL
C:\WINDOWS\SYSTEM32\SCHANNEL.DLL
C:\WINDOWS\SYSTEM32\CRYPT32.DLL
C:\WINDOWS\SYSTEM32\MSASN1.DLL
C:\WINDOWS\SYSTEM32\MSKEYPROTECT.DLL
C:\WINDOWS\SYSTEM32\NCRYPT.DLL
C:\WINDOWS\SYSTEM32\NTASN1.DLL
C:\WINDOWS\SYSTEM32\NCRYPTSSLP.DLL
C:\WINDOWS\ASSEMBLY\NATIVEIMAGES_V4.0.30319_32\SYSTEM.XML.LINQ\3D2EE290FE5A04AF9BE7946F24A4A28F\SYSTEM.XML.LINQ.NI.DLL
C:\WINDOWS\MICROSOFT.NET\FRAMEWORK\V4.0.30319\DIASYMREADER.DLL
C:\WINDOWS\ASSEMBLY\NATIVEIMAGES_V4.0.30319_32\SYSTEM.NET.HTTP\DAD79B7BAA106049AA8C6629DD279372\SYSTEM.NET.HTTP.NI.DLL
C:\WINDOWS\MICROSOFT.NET\FRAMEWORK\V4.0.30319\CLRCOMPRESSION.DLL
C:\WINDOWS\SYSTEM32\WER.DLL
C:\WINDOWS\SYSTEM32\AEPIC.DLL
C:\WINDOWS\SYSTEM32\NTMARTA.DLL
C:\WINDOWS\SYSTEM32\SFC.DLL
C:\WINDOWS\SYSTEM32\SFC_OS.DLL
C:\WINDOWS\SYSTEM32\SETUPAPI.DLL
C:\WINDOWS\SYSTEM32\DEVRTL.DLL
C:\WINDOWS\WINSXS\X86_MICROSOFT.WINDOWS.COMMON-CONTROLS_6595B64144CCF1DF_5.82.15063.413_NONE_55BC94A37C2A2854\COMCTL32.DLL
C:\WINDOWS\SYSTEM32\DBGHELP.DLL
C:\WINDOWS\SYSTEM32\DBGCORE.DLL
C:\PROGRAMDATA\MICROSOFT\WINDOWS\WER\TEMP
